<?xml version="1.0" encoding="UTF-8" standalone="no"?>
<!-- Created with Inkscape (http://www.inkscape.org/) -->

<svg
   width="2400"
   height="720"
   viewBox="0 0 634.99999 190.5"
   version="1.1"
   id="svg5"
   xml:space="preserve"
   inkscape:version="1.2 (dc2aedaf03, 2022-05-15)"
   sodipodi:docname="laravel-enumeration-banner.svg"
   inkscape:export-filename="larave-enumeration-banner.png"
   inkscape:export-xdpi="96"
   inkscape:export-ydpi="96"
   xmlns:inkscape="http://www.inkscape.org/namespaces/inkscape"
   xmlns:sodipodi="http://sodipodi.sourceforge.net/DTD/sodipodi-0.dtd"
   xmlns="http://www.w3.org/2000/svg"
   xmlns:svg="http://www.w3.org/2000/svg"><sodipodi:namedview
     id="namedview7"
     pagecolor="#ffffff"
     bordercolor="#666666"
     borderopacity="0.4"
     inkscape:showpageshadow="false"
     inkscape:pageopacity="0.0"
     inkscape:pagecheckerboard="0"
     inkscape:deskcolor="#d1d1d1"
     inkscape:document-units="px"
     showgrid="false"
     showborder="true"
     inkscape:zoom="0.49260384"
     inkscape:cx="1172.3417"
     inkscape:cy="97.441384"
     inkscape:window-width="1920"
     inkscape:window-height="1011"
     inkscape:window-x="0"
     inkscape:window-y="0"
     inkscape:window-maximized="1"
     inkscape:current-layer="layer1" /><defs
     id="defs2" /><g
     inkscape:label="Layer 1"
     inkscape:groupmode="layer"
     id="layer1"><rect
       style="opacity:0.05;fill:#483d8b;fill-opacity:1;stroke-width:18.6371;stroke-linecap:round;stroke-linejoin:round;stroke-opacity:0.496601"
       id="rect267"
       width="211.66667"
       height="92.604164"
       x="211.66666"
       y="48.947918"
       rx="3.96875"
       ry="3.96875" /><g
       id="g2407"
       transform="matrix(0.8857143,0,0,0.8857143,24.190472,-3.174999)"><rect
         ry="0.4630208"
         rx="0.4630208"
         y="64.822914"
         x="211.66666"
         height="92.604164"
         width="0.9260416"
         id="rect411"
         style="fill:#000000;stroke-width:0.818513;opacity:0.15" /><g
         id="g2394"
         transform="translate(1.0314404)"><text
           id="text415"
           y="128.26425"
           x="221.24481"
           style="font-style:normal;font-weight:normal;font-size:25.1921px;line-height:1.25;font-family:sans-serif;letter-spacing:0px;word-spacing:0px;fill:#000000;fill-opacity:1;stroke:none;stroke-width:0.629804"
           xml:space="preserve"><tspan
             style="font-style:normal;font-variant:normal;font-weight:300;font-stretch:normal;font-family:'Roboto Condensed';-inkscape-font-specification:'Roboto Condensed,  Light';stroke-width:0.629804"
             y="128.26425"
             x="221.24481"
             id="tspan413"
             sodipodi:role="line"><tspan
   id="tspan437"
   style="font-style:normal;font-variant:normal;font-weight:normal;font-stretch:normal;font-family:'Roboto Condensed';-inkscape-font-specification:'Roboto Condensed, ';fill:#483d8b;stroke-width:0.629804">Enumeration</tspan> <tspan
   id="tspan460"
   style="fill:#7b68ee;stroke-width:0.629804">Library</tspan><tspan
   style="fill:#808080;stroke-width:0.629804"
   id="tspan38">.</tspan></tspan></text><g
           id="g2383"
           transform="translate(-1.353398e-5)"><rect
             ry="1.3229167"
             rx="1.3229167"
             style="opacity:0.75;fill:#ff4500;fill-opacity:1;stroke:none;stroke-width:2.58738;stroke-linecap:round;stroke-linejoin:miter;stroke-miterlimit:4;stroke-dasharray:none"
             id="rect829"
             width="52.916668"
             height="15.874999"
             x="223.17606"
             y="86.248238" /><text
             xml:space="preserve"
             style="font-style:normal;font-weight:normal;font-size:14.2441px;line-height:1.25;font-family:sans-serif;letter-spacing:0px;word-spacing:0px;opacity:0.85;fill:#ffffff;fill-opacity:1;stroke:none;stroke-width:0.3561"
             x="224.60046"
             y="99.363411"
             id="text833"><tspan
               sodipodi:role="line"
               id="tspan831"
               x="224.60046"
               y="99.363411"
               style="font-style:normal;font-variant:normal;font-weight:normal;font-stretch:normal;font-family:Iosevka;-inkscape-font-specification:Iosevka;fill:#ffffff;stroke-width:0.3561">Laravel</tspan></text></g></g></g><g
       id="g1187"><path
         id="rect3231"
         style="opacity:0.025;fill:#483d8b;fill-opacity:1;stroke-width:14.3717;stroke-linecap:round;stroke-linejoin:round;stroke-opacity:0.496601"
         d="m 0,46.302079 v 3.96875 89.958341 3.96875 H 3.96875 14.201717 115.09375 c 2.19868,0 3.96875,-1.77007 3.96875,-3.96875 V 50.270829 c 0,-2.198685 -1.77007,-3.96875 -3.96875,-3.96875 H 14.201717 3.96875 Z" /><path
         id="path2570"
         style="opacity:0.15;fill:#7b68ee;fill-opacity:1;stroke-width:9.09842;stroke-linecap:round;stroke-linejoin:round;stroke-opacity:0.496601"
         d="M 1.0583333 46.566666 A 1.0583333 1.0583333 0 0 0 0 47.625 A 1.0583333 1.0583333 0 0 0 1.0583333 48.683333 A 1.0583333 1.0583333 0 0 0 2.1166667 47.625 A 1.0583333 1.0583333 0 0 0 1.0583333 46.566666 z M 11.641667 46.566666 A 1.0583333 1.0583333 0 0 0 10.583333 47.625 A 1.0583333 1.0583333 0 0 0 11.641667 48.683333 A 1.0583333 1.0583333 0 0 0 12.7 47.625 A 1.0583333 1.0583333 0 0 0 11.641667 46.566666 z M 22.225 46.566666 A 1.0583333 1.0583333 0 0 0 21.166667 47.625 A 1.0583333 1.0583333 0 0 0 22.225 48.683333 A 1.0583333 1.0583333 0 0 0 23.283333 47.625 A 1.0583333 1.0583333 0 0 0 22.225 46.566666 z M 32.808333 46.566666 A 1.0583333 1.0583333 0 0 0 31.75 47.625 A 1.0583333 1.0583333 0 0 0 32.808333 48.683333 A 1.0583333 1.0583333 0 0 0 33.866666 47.625 A 1.0583333 1.0583333 0 0 0 32.808333 46.566666 z M 43.391666 46.566666 A 1.0583333 1.0583333 0 0 0 42.333333 47.625 A 1.0583333 1.0583333 0 0 0 43.391666 48.683333 A 1.0583333 1.0583333 0 0 0 44.45 47.625 A 1.0583333 1.0583333 0 0 0 43.391666 46.566666 z M 53.975 46.566666 A 1.0583333 1.0583333 0 0 0 52.916666 47.625 A 1.0583333 1.0583333 0 0 0 53.975 48.683333 A 1.0583333 1.0583333 0 0 0 55.033333 47.625 A 1.0583333 1.0583333 0 0 0 53.975 46.566666 z M 64.558333 46.566666 A 1.0583333 1.0583333 0 0 0 63.5 47.625 A 1.0583333 1.0583333 0 0 0 64.558333 48.683333 A 1.0583333 1.0583333 0 0 0 65.616666 47.625 A 1.0583333 1.0583333 0 0 0 64.558333 46.566666 z M 75.141666 46.566666 A 1.0583333 1.0583333 0 0 0 74.083333 47.625 A 1.0583333 1.0583333 0 0 0 75.141666 48.683333 A 1.0583333 1.0583333 0 0 0 76.199999 47.625 A 1.0583333 1.0583333 0 0 0 75.141666 46.566666 z M 85.724999 46.566666 A 1.0583333 1.0583333 0 0 0 84.666666 47.625 A 1.0583333 1.0583333 0 0 0 85.724999 48.683333 A 1.0583333 1.0583333 0 0 0 86.783333 47.625 A 1.0583333 1.0583333 0 0 0 85.724999 46.566666 z M 96.308333 46.566666 A 1.0583333 1.0583333 0 0 0 95.249999 47.625 A 1.0583333 1.0583333 0 0 0 96.308333 48.683333 A 1.0583333 1.0583333 0 0 0 97.366666 47.625 A 1.0583333 1.0583333 0 0 0 96.308333 46.566666 z M 106.89167 46.566666 A 1.0583333 1.0583333 0 0 0 105.83333 47.625 A 1.0583333 1.0583333 0 0 0 106.89167 48.683333 A 1.0583333 1.0583333 0 0 0 107.95 47.625 A 1.0583333 1.0583333 0 0 0 106.89167 46.566666 z M 117.475 46.566666 A 1.0583333 1.0583333 0 0 0 116.41667 47.625 A 1.0583333 1.0583333 0 0 0 117.475 48.683333 A 1.0583333 1.0583333 0 0 0 118.53333 47.625 A 1.0583333 1.0583333 0 0 0 117.475 46.566666 z M 6.35 51.858333 A 1.0583333 1.0583333 0 0 0 5.2916666 52.916666 A 1.0583333 1.0583333 0 0 0 6.35 53.975 A 1.0583333 1.0583333 0 0 0 7.4083333 52.916666 A 1.0583333 1.0583333 0 0 0 6.35 51.858333 z M 16.933333 51.858333 A 1.0583333 1.0583333 0 0 0 15.875 52.916666 A 1.0583333 1.0583333 0 0 0 16.933333 53.975 A 1.0583333 1.0583333 0 0 0 17.991667 52.916666 A 1.0583333 1.0583333 0 0 0 16.933333 51.858333 z M 27.516666 51.858333 A 1.0583333 1.0583333 0 0 0 26.458333 52.916666 A 1.0583333 1.0583333 0 0 0 27.516666 53.975 A 1.0583333 1.0583333 0 0 0 28.575 52.916666 A 1.0583333 1.0583333 0 0 0 27.516666 51.858333 z M 38.1 51.858333 A 1.0583333 1.0583333 0 0 0 37.041666 52.916666 A 1.0583333 1.0583333 0 0 0 38.1 53.975 A 1.0583333 1.0583333 0 0 0 39.158333 52.916666 A 1.0583333 1.0583333 0 0 0 38.1 51.858333 z M 48.683333 51.858333 A 1.0583333 1.0583333 0 0 0 47.625 52.916666 A 1.0583333 1.0583333 0 0 0 48.683333 53.975 A 1.0583333 1.0583333 0 0 0 49.741666 52.916666 A 1.0583333 1.0583333 0 0 0 48.683333 51.858333 z M 59.266666 51.858333 A 1.0583333 1.0583333 0 0 0 58.208333 52.916666 A 1.0583333 1.0583333 0 0 0 59.266666 53.975 A 1.0583333 1.0583333 0 0 0 60.325 52.916666 A 1.0583333 1.0583333 0 0 0 59.266666 51.858333 z M 69.849999 51.858333 A 1.0583333 1.0583333 0 0 0 68.791666 52.916666 A 1.0583333 1.0583333 0 0 0 69.849999 53.975 A 1.0583333 1.0583333 0 0 0 70.908333 52.916666 A 1.0583333 1.0583333 0 0 0 69.849999 51.858333 z M 80.433333 51.858333 A 1.0583333 1.0583333 0 0 0 79.374999 52.916666 A 1.0583333 1.0583333 0 0 0 80.433333 53.975 A 1.0583333 1.0583333 0 0 0 81.491666 52.916666 A 1.0583333 1.0583333 0 0 0 80.433333 51.858333 z M 91.016666 51.858333 A 1.0583333 1.0583333 0 0 0 89.958333 52.916666 A 1.0583333 1.0583333 0 0 0 91.016666 53.975 A 1.0583333 1.0583333 0 0 0 92.074999 52.916666 A 1.0583333 1.0583333 0 0 0 91.016666 51.858333 z M 101.6 51.858333 A 1.0583333 1.0583333 0 0 0 100.54167 52.916666 A 1.0583333 1.0583333 0 0 0 101.6 53.975 A 1.0583333 1.0583333 0 0 0 102.65833 52.916666 A 1.0583333 1.0583333 0 0 0 101.6 51.858333 z M 112.18333 51.858333 A 1.0583333 1.0583333 0 0 0 111.125 52.916666 A 1.0583333 1.0583333 0 0 0 112.18333 53.975 A 1.0583333 1.0583333 0 0 0 113.24167 52.916666 A 1.0583333 1.0583333 0 0 0 112.18333 51.858333 z M 1.0583333 57.15 A 1.0583333 1.0583333 0 0 0 0 58.208333 A 1.0583333 1.0583333 0 0 0 1.0583333 59.266666 A 1.0583333 1.0583333 0 0 0 2.1166667 58.208333 A 1.0583333 1.0583333 0 0 0 1.0583333 57.15 z M 11.641667 57.15 A 1.0583333 1.0583333 0 0 0 10.583333 58.208333 A 1.0583333 1.0583333 0 0 0 11.641667 59.266666 A 1.0583333 1.0583333 0 0 0 12.7 58.208333 A 1.0583333 1.0583333 0 0 0 11.641667 57.15 z M 22.225 57.15 A 1.0583333 1.0583333 0 0 0 21.166667 58.208333 A 1.0583333 1.0583333 0 0 0 22.225 59.266666 A 1.0583333 1.0583333 0 0 0 23.283333 58.208333 A 1.0583333 1.0583333 0 0 0 22.225 57.15 z M 32.808333 57.15 A 1.0583333 1.0583333 0 0 0 31.75 58.208333 A 1.0583333 1.0583333 0 0 0 32.808333 59.266666 A 1.0583333 1.0583333 0 0 0 33.866666 58.208333 A 1.0583333 1.0583333 0 0 0 32.808333 57.15 z M 43.391666 57.15 A 1.0583333 1.0583333 0 0 0 42.333333 58.208333 A 1.0583333 1.0583333 0 0 0 43.391666 59.266666 A 1.0583333 1.0583333 0 0 0 44.45 58.208333 A 1.0583333 1.0583333 0 0 0 43.391666 57.15 z M 53.975 57.15 A 1.0583333 1.0583333 0 0 0 52.916666 58.208333 A 1.0583333 1.0583333 0 0 0 53.975 59.266666 A 1.0583333 1.0583333 0 0 0 55.033333 58.208333 A 1.0583333 1.0583333 0 0 0 53.975 57.15 z M 64.558333 57.15 A 1.0583333 1.0583333 0 0 0 63.5 58.208333 A 1.0583333 1.0583333 0 0 0 64.558333 59.266666 A 1.0583333 1.0583333 0 0 0 65.616666 58.208333 A 1.0583333 1.0583333 0 0 0 64.558333 57.15 z M 75.141666 57.15 A 1.0583333 1.0583333 0 0 0 74.083333 58.208333 A 1.0583333 1.0583333 0 0 0 75.141666 59.266666 A 1.0583333 1.0583333 0 0 0 76.199999 58.208333 A 1.0583333 1.0583333 0 0 0 75.141666 57.15 z M 85.724999 57.15 A 1.0583333 1.0583333 0 0 0 84.666666 58.208333 A 1.0583333 1.0583333 0 0 0 85.724999 59.266666 A 1.0583333 1.0583333 0 0 0 86.783333 58.208333 A 1.0583333 1.0583333 0 0 0 85.724999 57.15 z M 96.308333 57.15 A 1.0583333 1.0583333 0 0 0 95.249999 58.208333 A 1.0583333 1.0583333 0 0 0 96.308333 59.266666 A 1.0583333 1.0583333 0 0 0 97.366666 58.208333 A 1.0583333 1.0583333 0 0 0 96.308333 57.15 z M 106.89167 57.15 A 1.0583333 1.0583333 0 0 0 105.83333 58.208333 A 1.0583333 1.0583333 0 0 0 106.89167 59.266666 A 1.0583333 1.0583333 0 0 0 107.95 58.208333 A 1.0583333 1.0583333 0 0 0 106.89167 57.15 z M 117.475 57.15 A 1.0583333 1.0583333 0 0 0 116.41667 58.208333 A 1.0583333 1.0583333 0 0 0 117.475 59.266666 A 1.0583333 1.0583333 0 0 0 118.53333 58.208333 A 1.0583333 1.0583333 0 0 0 117.475 57.15 z M 6.35 62.441666 A 1.0583333 1.0583333 0 0 0 5.2916666 63.5 A 1.0583333 1.0583333 0 0 0 6.35 64.558333 A 1.0583333 1.0583333 0 0 0 7.4083333 63.5 A 1.0583333 1.0583333 0 0 0 6.35 62.441666 z M 16.933333 62.441666 A 1.0583333 1.0583333 0 0 0 15.875 63.5 A 1.0583333 1.0583333 0 0 0 16.933333 64.558333 A 1.0583333 1.0583333 0 0 0 17.991667 63.5 A 1.0583333 1.0583333 0 0 0 16.933333 62.441666 z M 27.516666 62.441666 A 1.0583333 1.0583333 0 0 0 26.458333 63.5 A 1.0583333 1.0583333 0 0 0 27.516666 64.558333 A 1.0583333 1.0583333 0 0 0 28.575 63.5 A 1.0583333 1.0583333 0 0 0 27.516666 62.441666 z M 38.1 62.441666 A 1.0583333 1.0583333 0 0 0 37.041666 63.5 A 1.0583333 1.0583333 0 0 0 38.1 64.558333 A 1.0583333 1.0583333 0 0 0 39.158333 63.5 A 1.0583333 1.0583333 0 0 0 38.1 62.441666 z M 48.683333 62.441666 A 1.0583333 1.0583333 0 0 0 47.625 63.5 A 1.0583333 1.0583333 0 0 0 48.683333 64.558333 A 1.0583333 1.0583333 0 0 0 49.741666 63.5 A 1.0583333 1.0583333 0 0 0 48.683333 62.441666 z M 59.266666 62.441666 A 1.0583333 1.0583333 0 0 0 58.208333 63.5 A 1.0583333 1.0583333 0 0 0 59.266666 64.558333 A 1.0583333 1.0583333 0 0 0 60.325 63.5 A 1.0583333 1.0583333 0 0 0 59.266666 62.441666 z M 69.849999 62.441666 A 1.0583333 1.0583333 0 0 0 68.791666 63.5 A 1.0583333 1.0583333 0 0 0 69.849999 64.558333 A 1.0583333 1.0583333 0 0 0 70.908333 63.5 A 1.0583333 1.0583333 0 0 0 69.849999 62.441666 z M 80.433333 62.441666 A 1.0583333 1.0583333 0 0 0 79.374999 63.5 A 1.0583333 1.0583333 0 0 0 80.433333 64.558333 A 1.0583333 1.0583333 0 0 0 81.491666 63.5 A 1.0583333 1.0583333 0 0 0 80.433333 62.441666 z M 91.016666 62.441666 A 1.0583333 1.0583333 0 0 0 89.958333 63.5 A 1.0583333 1.0583333 0 0 0 91.016666 64.558333 A 1.0583333 1.0583333 0 0 0 92.074999 63.5 A 1.0583333 1.0583333 0 0 0 91.016666 62.441666 z M 101.6 62.441666 A 1.0583333 1.0583333 0 0 0 100.54167 63.5 A 1.0583333 1.0583333 0 0 0 101.6 64.558333 A 1.0583333 1.0583333 0 0 0 102.65833 63.5 A 1.0583333 1.0583333 0 0 0 101.6 62.441666 z M 112.18333 62.441666 A 1.0583333 1.0583333 0 0 0 111.125 63.5 A 1.0583333 1.0583333 0 0 0 112.18333 64.558333 A 1.0583333 1.0583333 0 0 0 113.24167 63.5 A 1.0583333 1.0583333 0 0 0 112.18333 62.441666 z M 1.0583333 67.733333 A 1.0583333 1.0583333 0 0 0 0 68.791666 A 1.0583333 1.0583333 0 0 0 1.0583333 69.849999 A 1.0583333 1.0583333 0 0 0 2.1166667 68.791666 A 1.0583333 1.0583333 0 0 0 1.0583333 67.733333 z M 11.641667 67.733333 A 1.0583333 1.0583333 0 0 0 10.583333 68.791666 A 1.0583333 1.0583333 0 0 0 11.641667 69.849999 A 1.0583333 1.0583333 0 0 0 12.7 68.791666 A 1.0583333 1.0583333 0 0 0 11.641667 67.733333 z M 22.225 67.733333 A 1.0583333 1.0583333 0 0 0 21.166667 68.791666 A 1.0583333 1.0583333 0 0 0 22.225 69.849999 A 1.0583333 1.0583333 0 0 0 23.283333 68.791666 A 1.0583333 1.0583333 0 0 0 22.225 67.733333 z M 32.808333 67.733333 A 1.0583333 1.0583333 0 0 0 31.75 68.791666 A 1.0583333 1.0583333 0 0 0 32.808333 69.849999 A 1.0583333 1.0583333 0 0 0 33.866666 68.791666 A 1.0583333 1.0583333 0 0 0 32.808333 67.733333 z M 43.391666 67.733333 A 1.0583333 1.0583333 0 0 0 42.333333 68.791666 A 1.0583333 1.0583333 0 0 0 43.391666 69.849999 A 1.0583333 1.0583333 0 0 0 44.45 68.791666 A 1.0583333 1.0583333 0 0 0 43.391666 67.733333 z M 53.975 67.733333 A 1.0583333 1.0583333 0 0 0 52.916666 68.791666 A 1.0583333 1.0583333 0 0 0 53.975 69.849999 A 1.0583333 1.0583333 0 0 0 55.033333 68.791666 A 1.0583333 1.0583333 0 0 0 53.975 67.733333 z M 64.558333 67.733333 A 1.0583333 1.0583333 0 0 0 63.5 68.791666 A 1.0583333 1.0583333 0 0 0 64.558333 69.849999 A 1.0583333 1.0583333 0 0 0 65.616666 68.791666 A 1.0583333 1.0583333 0 0 0 64.558333 67.733333 z M 75.141666 67.733333 A 1.0583333 1.0583333 0 0 0 74.083333 68.791666 A 1.0583333 1.0583333 0 0 0 75.141666 69.849999 A 1.0583333 1.0583333 0 0 0 76.199999 68.791666 A 1.0583333 1.0583333 0 0 0 75.141666 67.733333 z M 85.724999 67.733333 A 1.0583333 1.0583333 0 0 0 84.666666 68.791666 A 1.0583333 1.0583333 0 0 0 85.724999 69.849999 A 1.0583333 1.0583333 0 0 0 86.783333 68.791666 A 1.0583333 1.0583333 0 0 0 85.724999 67.733333 z M 96.308333 67.733333 A 1.0583333 1.0583333 0 0 0 95.249999 68.791666 A 1.0583333 1.0583333 0 0 0 96.308333 69.849999 A 1.0583333 1.0583333 0 0 0 97.366666 68.791666 A 1.0583333 1.0583333 0 0 0 96.308333 67.733333 z M 106.89167 67.733333 A 1.0583333 1.0583333 0 0 0 105.83333 68.791666 A 1.0583333 1.0583333 0 0 0 106.89167 69.849999 A 1.0583333 1.0583333 0 0 0 107.95 68.791666 A 1.0583333 1.0583333 0 0 0 106.89167 67.733333 z M 117.475 67.733333 A 1.0583333 1.0583333 0 0 0 116.41667 68.791666 A 1.0583333 1.0583333 0 0 0 117.475 69.849999 A 1.0583333 1.0583333 0 0 0 118.53333 68.791666 A 1.0583333 1.0583333 0 0 0 117.475 67.733333 z M 6.35 73.024999 A 1.0583333 1.0583333 0 0 0 5.2916666 74.083333 A 1.0583333 1.0583333 0 0 0 6.35 75.141666 A 1.0583333 1.0583333 0 0 0 7.4083333 74.083333 A 1.0583333 1.0583333 0 0 0 6.35 73.024999 z M 16.933333 73.024999 A 1.0583333 1.0583333 0 0 0 15.875 74.083333 A 1.0583333 1.0583333 0 0 0 16.933333 75.141666 A 1.0583333 1.0583333 0 0 0 17.991667 74.083333 A 1.0583333 1.0583333 0 0 0 16.933333 73.024999 z M 27.516666 73.024999 A 1.0583333 1.0583333 0 0 0 26.458333 74.083333 A 1.0583333 1.0583333 0 0 0 27.516666 75.141666 A 1.0583333 1.0583333 0 0 0 28.575 74.083333 A 1.0583333 1.0583333 0 0 0 27.516666 73.024999 z M 38.1 73.024999 A 1.0583333 1.0583333 0 0 0 37.041666 74.083333 A 1.0583333 1.0583333 0 0 0 38.1 75.141666 A 1.0583333 1.0583333 0 0 0 39.158333 74.083333 A 1.0583333 1.0583333 0 0 0 38.1 73.024999 z M 48.683333 73.024999 A 1.0583333 1.0583333 0 0 0 47.625 74.083333 A 1.0583333 1.0583333 0 0 0 48.683333 75.141666 A 1.0583333 1.0583333 0 0 0 49.741666 74.083333 A 1.0583333 1.0583333 0 0 0 48.683333 73.024999 z M 59.266666 73.024999 A 1.0583333 1.0583333 0 0 0 58.208333 74.083333 A 1.0583333 1.0583333 0 0 0 59.266666 75.141666 A 1.0583333 1.0583333 0 0 0 60.325 74.083333 A 1.0583333 1.0583333 0 0 0 59.266666 73.024999 z M 69.849999 73.024999 A 1.0583333 1.0583333 0 0 0 68.791666 74.083333 A 1.0583333 1.0583333 0 0 0 69.849999 75.141666 A 1.0583333 1.0583333 0 0 0 70.908333 74.083333 A 1.0583333 1.0583333 0 0 0 69.849999 73.024999 z M 80.433333 73.024999 A 1.0583333 1.0583333 0 0 0 79.374999 74.083333 A 1.0583333 1.0583333 0 0 0 80.433333 75.141666 A 1.0583333 1.0583333 0 0 0 81.491666 74.083333 A 1.0583333 1.0583333 0 0 0 80.433333 73.024999 z M 91.016666 73.024999 A 1.0583333 1.0583333 0 0 0 89.958333 74.083333 A 1.0583333 1.0583333 0 0 0 91.016666 75.141666 A 1.0583333 1.0583333 0 0 0 92.074999 74.083333 A 1.0583333 1.0583333 0 0 0 91.016666 73.024999 z M 101.6 73.024999 A 1.0583333 1.0583333 0 0 0 100.54167 74.083333 A 1.0583333 1.0583333 0 0 0 101.6 75.141666 A 1.0583333 1.0583333 0 0 0 102.65833 74.083333 A 1.0583333 1.0583333 0 0 0 101.6 73.024999 z M 112.18333 73.024999 A 1.0583333 1.0583333 0 0 0 111.125 74.083333 A 1.0583333 1.0583333 0 0 0 112.18333 75.141666 A 1.0583333 1.0583333 0 0 0 113.24167 74.083333 A 1.0583333 1.0583333 0 0 0 112.18333 73.024999 z M 1.0583333 78.316666 A 1.0583333 1.0583333 0 0 0 0 79.374999 A 1.0583333 1.0583333 0 0 0 1.0583333 80.433333 A 1.0583333 1.0583333 0 0 0 2.1166667 79.374999 A 1.0583333 1.0583333 0 0 0 1.0583333 78.316666 z M 11.641667 78.316666 A 1.0583333 1.0583333 0 0 0 10.583333 79.374999 A 1.0583333 1.0583333 0 0 0 11.641667 80.433333 A 1.0583333 1.0583333 0 0 0 12.7 79.374999 A 1.0583333 1.0583333 0 0 0 11.641667 78.316666 z M 22.225 78.316666 A 1.0583333 1.0583333 0 0 0 21.166667 79.374999 A 1.0583333 1.0583333 0 0 0 22.225 80.433333 A 1.0583333 1.0583333 0 0 0 23.283333 79.374999 A 1.0583333 1.0583333 0 0 0 22.225 78.316666 z M 32.808333 78.316666 A 1.0583333 1.0583333 0 0 0 31.75 79.374999 A 1.0583333 1.0583333 0 0 0 32.808333 80.433333 A 1.0583333 1.0583333 0 0 0 33.866666 79.374999 A 1.0583333 1.0583333 0 0 0 32.808333 78.316666 z M 43.391666 78.316666 A 1.0583333 1.0583333 0 0 0 42.333333 79.374999 A 1.0583333 1.0583333 0 0 0 43.391666 80.433333 A 1.0583333 1.0583333 0 0 0 44.45 79.374999 A 1.0583333 1.0583333 0 0 0 43.391666 78.316666 z M 53.975 78.316666 A 1.0583333 1.0583333 0 0 0 52.916666 79.374999 A 1.0583333 1.0583333 0 0 0 53.975 80.433333 A 1.0583333 1.0583333 0 0 0 55.033333 79.374999 A 1.0583333 1.0583333 0 0 0 53.975 78.316666 z M 64.558333 78.316666 A 1.0583333 1.0583333 0 0 0 63.5 79.374999 A 1.0583333 1.0583333 0 0 0 64.558333 80.433333 A 1.0583333 1.0583333 0 0 0 65.616666 79.374999 A 1.0583333 1.0583333 0 0 0 64.558333 78.316666 z M 75.141666 78.316666 A 1.0583333 1.0583333 0 0 0 74.083333 79.374999 A 1.0583333 1.0583333 0 0 0 75.141666 80.433333 A 1.0583333 1.0583333 0 0 0 76.199999 79.374999 A 1.0583333 1.0583333 0 0 0 75.141666 78.316666 z M 85.724999 78.316666 A 1.0583333 1.0583333 0 0 0 84.666666 79.374999 A 1.0583333 1.0583333 0 0 0 85.724999 80.433333 A 1.0583333 1.0583333 0 0 0 86.783333 79.374999 A 1.0583333 1.0583333 0 0 0 85.724999 78.316666 z M 96.308333 78.316666 A 1.0583333 1.0583333 0 0 0 95.249999 79.374999 A 1.0583333 1.0583333 0 0 0 96.308333 80.433333 A 1.0583333 1.0583333 0 0 0 97.366666 79.374999 A 1.0583333 1.0583333 0 0 0 96.308333 78.316666 z M 106.89167 78.316666 A 1.0583333 1.0583333 0 0 0 105.83333 79.374999 A 1.0583333 1.0583333 0 0 0 106.89167 80.433333 A 1.0583333 1.0583333 0 0 0 107.95 79.374999 A 1.0583333 1.0583333 0 0 0 106.89167 78.316666 z M 117.475 78.316666 A 1.0583333 1.0583333 0 0 0 116.41667 79.374999 A 1.0583333 1.0583333 0 0 0 117.475 80.433333 A 1.0583333 1.0583333 0 0 0 118.53333 79.374999 A 1.0583333 1.0583333 0 0 0 117.475 78.316666 z M 6.35 83.608333 A 1.0583333 1.0583333 0 0 0 5.2916666 84.666666 A 1.0583333 1.0583333 0 0 0 6.35 85.724999 A 1.0583333 1.0583333 0 0 0 7.4083333 84.666666 A 1.0583333 1.0583333 0 0 0 6.35 83.608333 z M 16.933333 83.608333 A 1.0583333 1.0583333 0 0 0 15.875 84.666666 A 1.0583333 1.0583333 0 0 0 16.933333 85.724999 A 1.0583333 1.0583333 0 0 0 17.991667 84.666666 A 1.0583333 1.0583333 0 0 0 16.933333 83.608333 z M 27.516666 83.608333 A 1.0583333 1.0583333 0 0 0 26.458333 84.666666 A 1.0583333 1.0583333 0 0 0 27.516666 85.724999 A 1.0583333 1.0583333 0 0 0 28.575 84.666666 A 1.0583333 1.0583333 0 0 0 27.516666 83.608333 z M 38.1 83.608333 A 1.0583333 1.0583333 0 0 0 37.041666 84.666666 A 1.0583333 1.0583333 0 0 0 38.1 85.724999 A 1.0583333 1.0583333 0 0 0 39.158333 84.666666 A 1.0583333 1.0583333 0 0 0 38.1 83.608333 z M 48.683333 83.608333 A 1.0583333 1.0583333 0 0 0 47.625 84.666666 A 1.0583333 1.0583333 0 0 0 48.683333 85.724999 A 1.0583333 1.0583333 0 0 0 49.741666 84.666666 A 1.0583333 1.0583333 0 0 0 48.683333 83.608333 z M 59.266666 83.608333 A 1.0583333 1.0583333 0 0 0 58.208333 84.666666 A 1.0583333 1.0583333 0 0 0 59.266666 85.724999 A 1.0583333 1.0583333 0 0 0 60.325 84.666666 A 1.0583333 1.0583333 0 0 0 59.266666 83.608333 z M 69.849999 83.608333 A 1.0583333 1.0583333 0 0 0 68.791666 84.666666 A 1.0583333 1.0583333 0 0 0 69.849999 85.724999 A 1.0583333 1.0583333 0 0 0 70.908333 84.666666 A 1.0583333 1.0583333 0 0 0 69.849999 83.608333 z M 80.433333 83.608333 A 1.0583333 1.0583333 0 0 0 79.374999 84.666666 A 1.0583333 1.0583333 0 0 0 80.433333 85.724999 A 1.0583333 1.0583333 0 0 0 81.491666 84.666666 A 1.0583333 1.0583333 0 0 0 80.433333 83.608333 z M 91.016666 83.608333 A 1.0583333 1.0583333 0 0 0 89.958333 84.666666 A 1.0583333 1.0583333 0 0 0 91.016666 85.724999 A 1.0583333 1.0583333 0 0 0 92.074999 84.666666 A 1.0583333 1.0583333 0 0 0 91.016666 83.608333 z M 101.6 83.608333 A 1.0583333 1.0583333 0 0 0 100.54167 84.666666 A 1.0583333 1.0583333 0 0 0 101.6 85.724999 A 1.0583333 1.0583333 0 0 0 102.65833 84.666666 A 1.0583333 1.0583333 0 0 0 101.6 83.608333 z M 112.18333 83.608333 A 1.0583333 1.0583333 0 0 0 111.125 84.666666 A 1.0583333 1.0583333 0 0 0 112.18333 85.724999 A 1.0583333 1.0583333 0 0 0 113.24167 84.666666 A 1.0583333 1.0583333 0 0 0 112.18333 83.608333 z M 1.0583333 88.899999 A 1.0583333 1.0583333 0 0 0 0 89.958333 A 1.0583333 1.0583333 0 0 0 1.0583333 91.016666 A 1.0583333 1.0583333 0 0 0 2.1166667 89.958333 A 1.0583333 1.0583333 0 0 0 1.0583333 88.899999 z M 11.641667 88.899999 A 1.0583333 1.0583333 0 0 0 10.583333 89.958333 A 1.0583333 1.0583333 0 0 0 11.641667 91.016666 A 1.0583333 1.0583333 0 0 0 12.7 89.958333 A 1.0583333 1.0583333 0 0 0 11.641667 88.899999 z M 22.225 88.899999 A 1.0583333 1.0583333 0 0 0 21.166667 89.958333 A 1.0583333 1.0583333 0 0 0 22.225 91.016666 A 1.0583333 1.0583333 0 0 0 23.283333 89.958333 A 1.0583333 1.0583333 0 0 0 22.225 88.899999 z M 32.808333 88.899999 A 1.0583333 1.0583333 0 0 0 31.75 89.958333 A 1.0583333 1.0583333 0 0 0 32.808333 91.016666 A 1.0583333 1.0583333 0 0 0 33.866666 89.958333 A 1.0583333 1.0583333 0 0 0 32.808333 88.899999 z M 43.391666 88.899999 A 1.0583333 1.0583333 0 0 0 42.333333 89.958333 A 1.0583333 1.0583333 0 0 0 43.391666 91.016666 A 1.0583333 1.0583333 0 0 0 44.45 89.958333 A 1.0583333 1.0583333 0 0 0 43.391666 88.899999 z M 53.975 88.899999 A 1.0583333 1.0583333 0 0 0 52.916666 89.958333 A 1.0583333 1.0583333 0 0 0 53.975 91.016666 A 1.0583333 1.0583333 0 0 0 55.033333 89.958333 A 1.0583333 1.0583333 0 0 0 53.975 88.899999 z M 64.558333 88.899999 A 1.0583333 1.0583333 0 0 0 63.5 89.958333 A 1.0583333 1.0583333 0 0 0 64.558333 91.016666 A 1.0583333 1.0583333 0 0 0 65.616666 89.958333 A 1.0583333 1.0583333 0 0 0 64.558333 88.899999 z M 75.141666 88.899999 A 1.0583333 1.0583333 0 0 0 74.083333 89.958333 A 1.0583333 1.0583333 0 0 0 75.141666 91.016666 A 1.0583333 1.0583333 0 0 0 76.199999 89.958333 A 1.0583333 1.0583333 0 0 0 75.141666 88.899999 z M 85.724999 88.899999 A 1.0583333 1.0583333 0 0 0 84.666666 89.958333 A 1.0583333 1.0583333 0 0 0 85.724999 91.016666 A 1.0583333 1.0583333 0 0 0 86.783333 89.958333 A 1.0583333 1.0583333 0 0 0 85.724999 88.899999 z M 96.308333 88.899999 A 1.0583333 1.0583333 0 0 0 95.249999 89.958333 A 1.0583333 1.0583333 0 0 0 96.308333 91.016666 A 1.0583333 1.0583333 0 0 0 97.366666 89.958333 A 1.0583333 1.0583333 0 0 0 96.308333 88.899999 z M 106.89167 88.899999 A 1.0583333 1.0583333 0 0 0 105.83333 89.958333 A 1.0583333 1.0583333 0 0 0 106.89167 91.016666 A 1.0583333 1.0583333 0 0 0 107.95 89.958333 A 1.0583333 1.0583333 0 0 0 106.89167 88.899999 z M 117.475 88.899999 A 1.0583333 1.0583333 0 0 0 116.41667 89.958333 A 1.0583333 1.0583333 0 0 0 117.475 91.016666 A 1.0583333 1.0583333 0 0 0 118.53333 89.958333 A 1.0583333 1.0583333 0 0 0 117.475 88.899999 z M 6.35 94.191666 A 1.0583333 1.0583333 0 0 0 5.2916666 95.249999 A 1.0583333 1.0583333 0 0 0 6.35 96.308333 A 1.0583333 1.0583333 0 0 0 7.4083333 95.249999 A 1.0583333 1.0583333 0 0 0 6.35 94.191666 z M 16.933333 94.191666 A 1.0583333 1.0583333 0 0 0 15.875 95.249999 A 1.0583333 1.0583333 0 0 0 16.933333 96.308333 A 1.0583333 1.0583333 0 0 0 17.991667 95.249999 A 1.0583333 1.0583333 0 0 0 16.933333 94.191666 z M 27.516666 94.191666 A 1.0583333 1.0583333 0 0 0 26.458333 95.249999 A 1.0583333 1.0583333 0 0 0 27.516666 96.308333 A 1.0583333 1.0583333 0 0 0 28.575 95.249999 A 1.0583333 1.0583333 0 0 0 27.516666 94.191666 z M 38.1 94.191666 A 1.0583333 1.0583333 0 0 0 37.041666 95.249999 A 1.0583333 1.0583333 0 0 0 38.1 96.308333 A 1.0583333 1.0583333 0 0 0 39.158333 95.249999 A 1.0583333 1.0583333 0 0 0 38.1 94.191666 z M 48.683333 94.191666 A 1.0583333 1.0583333 0 0 0 47.625 95.249999 A 1.0583333 1.0583333 0 0 0 48.683333 96.308333 A 1.0583333 1.0583333 0 0 0 49.741666 95.249999 A 1.0583333 1.0583333 0 0 0 48.683333 94.191666 z M 59.266666 94.191666 A 1.0583333 1.0583333 0 0 0 58.208333 95.249999 A 1.0583333 1.0583333 0 0 0 59.266666 96.308333 A 1.0583333 1.0583333 0 0 0 60.325 95.249999 A 1.0583333 1.0583333 0 0 0 59.266666 94.191666 z M 69.849999 94.191666 A 1.0583333 1.0583333 0 0 0 68.791666 95.249999 A 1.0583333 1.0583333 0 0 0 69.849999 96.308333 A 1.0583333 1.0583333 0 0 0 70.908333 95.249999 A 1.0583333 1.0583333 0 0 0 69.849999 94.191666 z M 80.433333 94.191666 A 1.0583333 1.0583333 0 0 0 79.374999 95.249999 A 1.0583333 1.0583333 0 0 0 80.433333 96.308333 A 1.0583333 1.0583333 0 0 0 81.491666 95.249999 A 1.0583333 1.0583333 0 0 0 80.433333 94.191666 z M 91.016666 94.191666 A 1.0583333 1.0583333 0 0 0 89.958333 95.249999 A 1.0583333 1.0583333 0 0 0 91.016666 96.308333 A 1.0583333 1.0583333 0 0 0 92.074999 95.249999 A 1.0583333 1.0583333 0 0 0 91.016666 94.191666 z M 101.6 94.191666 A 1.0583333 1.0583333 0 0 0 100.54167 95.249999 A 1.0583333 1.0583333 0 0 0 101.6 96.308333 A 1.0583333 1.0583333 0 0 0 102.65833 95.249999 A 1.0583333 1.0583333 0 0 0 101.6 94.191666 z M 112.18333 94.191666 A 1.0583333 1.0583333 0 0 0 111.125 95.249999 A 1.0583333 1.0583333 0 0 0 112.18333 96.308333 A 1.0583333 1.0583333 0 0 0 113.24167 95.249999 A 1.0583333 1.0583333 0 0 0 112.18333 94.191666 z M 1.0583333 99.483333 A 1.0583333 1.0583333 0 0 0 0 100.54167 A 1.0583333 1.0583333 0 0 0 1.0583333 101.6 A 1.0583333 1.0583333 0 0 0 2.1166667 100.54167 A 1.0583333 1.0583333 0 0 0 1.0583333 99.483333 z M 11.641667 99.483333 A 1.0583333 1.0583333 0 0 0 10.583333 100.54167 A 1.0583333 1.0583333 0 0 0 11.641667 101.6 A 1.0583333 1.0583333 0 0 0 12.7 100.54167 A 1.0583333 1.0583333 0 0 0 11.641667 99.483333 z M 22.225 99.483333 A 1.0583333 1.0583333 0 0 0 21.166667 100.54167 A 1.0583333 1.0583333 0 0 0 22.225 101.6 A 1.0583333 1.0583333 0 0 0 23.283333 100.54167 A 1.0583333 1.0583333 0 0 0 22.225 99.483333 z M 32.808333 99.483333 A 1.0583333 1.0583333 0 0 0 31.75 100.54167 A 1.0583333 1.0583333 0 0 0 32.808333 101.6 A 1.0583333 1.0583333 0 0 0 33.866666 100.54167 A 1.0583333 1.0583333 0 0 0 32.808333 99.483333 z M 43.391666 99.483333 A 1.0583333 1.0583333 0 0 0 42.333333 100.54167 A 1.0583333 1.0583333 0 0 0 43.391666 101.6 A 1.0583333 1.0583333 0 0 0 44.45 100.54167 A 1.0583333 1.0583333 0 0 0 43.391666 99.483333 z M 53.975 99.483333 A 1.0583333 1.0583333 0 0 0 52.916666 100.54167 A 1.0583333 1.0583333 0 0 0 53.975 101.6 A 1.0583333 1.0583333 0 0 0 55.033333 100.54167 A 1.0583333 1.0583333 0 0 0 53.975 99.483333 z M 64.558333 99.483333 A 1.0583333 1.0583333 0 0 0 63.5 100.54167 A 1.0583333 1.0583333 0 0 0 64.558333 101.6 A 1.0583333 1.0583333 0 0 0 65.616666 100.54167 A 1.0583333 1.0583333 0 0 0 64.558333 99.483333 z M 75.141666 99.483333 A 1.0583333 1.0583333 0 0 0 74.083333 100.54167 A 1.0583333 1.0583333 0 0 0 75.141666 101.6 A 1.0583333 1.0583333 0 0 0 76.199999 100.54167 A 1.0583333 1.0583333 0 0 0 75.141666 99.483333 z M 85.724999 99.483333 A 1.0583333 1.0583333 0 0 0 84.666666 100.54167 A 1.0583333 1.0583333 0 0 0 85.724999 101.6 A 1.0583333 1.0583333 0 0 0 86.783333 100.54167 A 1.0583333 1.0583333 0 0 0 85.724999 99.483333 z M 96.308333 99.483333 A 1.0583333 1.0583333 0 0 0 95.249999 100.54167 A 1.0583333 1.0583333 0 0 0 96.308333 101.6 A 1.0583333 1.0583333 0 0 0 97.366666 100.54167 A 1.0583333 1.0583333 0 0 0 96.308333 99.483333 z M 106.89167 99.483333 A 1.0583333 1.0583333 0 0 0 105.83333 100.54167 A 1.0583333 1.0583333 0 0 0 106.89167 101.6 A 1.0583333 1.0583333 0 0 0 107.95 100.54167 A 1.0583333 1.0583333 0 0 0 106.89167 99.483333 z M 117.475 99.483333 A 1.0583333 1.0583333 0 0 0 116.41667 100.54167 A 1.0583333 1.0583333 0 0 0 117.475 101.6 A 1.0583333 1.0583333 0 0 0 118.53333 100.54167 A 1.0583333 1.0583333 0 0 0 117.475 99.483333 z M 6.35 104.775 A 1.0583333 1.0583333 0 0 0 5.2916666 105.83333 A 1.0583333 1.0583333 0 0 0 6.35 106.89167 A 1.0583333 1.0583333 0 0 0 7.4083333 105.83333 A 1.0583333 1.0583333 0 0 0 6.35 104.775 z M 16.933333 104.775 A 1.0583333 1.0583333 0 0 0 15.875 105.83333 A 1.0583333 1.0583333 0 0 0 16.933333 106.89167 A 1.0583333 1.0583333 0 0 0 17.991667 105.83333 A 1.0583333 1.0583333 0 0 0 16.933333 104.775 z M 27.516666 104.775 A 1.0583333 1.0583333 0 0 0 26.458333 105.83333 A 1.0583333 1.0583333 0 0 0 27.516666 106.89167 A 1.0583333 1.0583333 0 0 0 28.575 105.83333 A 1.0583333 1.0583333 0 0 0 27.516666 104.775 z M 38.1 104.775 A 1.0583333 1.0583333 0 0 0 37.041666 105.83333 A 1.0583333 1.0583333 0 0 0 38.1 106.89167 A 1.0583333 1.0583333 0 0 0 39.158333 105.83333 A 1.0583333 1.0583333 0 0 0 38.1 104.775 z M 48.683333 104.775 A 1.0583333 1.0583333 0 0 0 47.625 105.83333 A 1.0583333 1.0583333 0 0 0 48.683333 106.89167 A 1.0583333 1.0583333 0 0 0 49.741666 105.83333 A 1.0583333 1.0583333 0 0 0 48.683333 104.775 z M 59.266666 104.775 A 1.0583333 1.0583333 0 0 0 58.208333 105.83333 A 1.0583333 1.0583333 0 0 0 59.266666 106.89167 A 1.0583333 1.0583333 0 0 0 60.325 105.83333 A 1.0583333 1.0583333 0 0 0 59.266666 104.775 z M 69.849999 104.775 A 1.0583333 1.0583333 0 0 0 68.791666 105.83333 A 1.0583333 1.0583333 0 0 0 69.849999 106.89167 A 1.0583333 1.0583333 0 0 0 70.908333 105.83333 A 1.0583333 1.0583333 0 0 0 69.849999 104.775 z M 80.433333 104.775 A 1.0583333 1.0583333 0 0 0 79.374999 105.83333 A 1.0583333 1.0583333 0 0 0 80.433333 106.89167 A 1.0583333 1.0583333 0 0 0 81.491666 105.83333 A 1.0583333 1.0583333 0 0 0 80.433333 104.775 z M 91.016666 104.775 A 1.0583333 1.0583333 0 0 0 89.958333 105.83333 A 1.0583333 1.0583333 0 0 0 91.016666 106.89167 A 1.0583333 1.0583333 0 0 0 92.074999 105.83333 A 1.0583333 1.0583333 0 0 0 91.016666 104.775 z M 101.6 104.775 A 1.0583333 1.0583333 0 0 0 100.54167 105.83333 A 1.0583333 1.0583333 0 0 0 101.6 106.89167 A 1.0583333 1.0583333 0 0 0 102.65833 105.83333 A 1.0583333 1.0583333 0 0 0 101.6 104.775 z M 112.18333 104.775 A 1.0583333 1.0583333 0 0 0 111.125 105.83333 A 1.0583333 1.0583333 0 0 0 112.18333 106.89167 A 1.0583333 1.0583333 0 0 0 113.24167 105.83333 A 1.0583333 1.0583333 0 0 0 112.18333 104.775 z M 1.0583333 110.06667 A 1.0583333 1.0583333 0 0 0 0 111.125 A 1.0583333 1.0583333 0 0 0 1.0583333 112.18333 A 1.0583333 1.0583333 0 0 0 2.1166667 111.125 A 1.0583333 1.0583333 0 0 0 1.0583333 110.06667 z M 11.641667 110.06667 A 1.0583333 1.0583333 0 0 0 10.583333 111.125 A 1.0583333 1.0583333 0 0 0 11.641667 112.18333 A 1.0583333 1.0583333 0 0 0 12.7 111.125 A 1.0583333 1.0583333 0 0 0 11.641667 110.06667 z M 22.225 110.06667 A 1.0583333 1.0583333 0 0 0 21.166667 111.125 A 1.0583333 1.0583333 0 0 0 22.225 112.18333 A 1.0583333 1.0583333 0 0 0 23.283333 111.125 A 1.0583333 1.0583333 0 0 0 22.225 110.06667 z M 32.808333 110.06667 A 1.0583333 1.0583333 0 0 0 31.75 111.125 A 1.0583333 1.0583333 0 0 0 32.808333 112.18333 A 1.0583333 1.0583333 0 0 0 33.866666 111.125 A 1.0583333 1.0583333 0 0 0 32.808333 110.06667 z M 43.391666 110.06667 A 1.0583333 1.0583333 0 0 0 42.333333 111.125 A 1.0583333 1.0583333 0 0 0 43.391666 112.18333 A 1.0583333 1.0583333 0 0 0 44.45 111.125 A 1.0583333 1.0583333 0 0 0 43.391666 110.06667 z M 53.975 110.06667 A 1.0583333 1.0583333 0 0 0 52.916666 111.125 A 1.0583333 1.0583333 0 0 0 53.975 112.18333 A 1.0583333 1.0583333 0 0 0 55.033333 111.125 A 1.0583333 1.0583333 0 0 0 53.975 110.06667 z M 64.558333 110.06667 A 1.0583333 1.0583333 0 0 0 63.5 111.125 A 1.0583333 1.0583333 0 0 0 64.558333 112.18333 A 1.0583333 1.0583333 0 0 0 65.616666 111.125 A 1.0583333 1.0583333 0 0 0 64.558333 110.06667 z M 75.141666 110.06667 A 1.0583333 1.0583333 0 0 0 74.083333 111.125 A 1.0583333 1.0583333 0 0 0 75.141666 112.18333 A 1.0583333 1.0583333 0 0 0 76.199999 111.125 A 1.0583333 1.0583333 0 0 0 75.141666 110.06667 z M 85.724999 110.06667 A 1.0583333 1.0583333 0 0 0 84.666666 111.125 A 1.0583333 1.0583333 0 0 0 85.724999 112.18333 A 1.0583333 1.0583333 0 0 0 86.783333 111.125 A 1.0583333 1.0583333 0 0 0 85.724999 110.06667 z M 96.308333 110.06667 A 1.0583333 1.0583333 0 0 0 95.249999 111.125 A 1.0583333 1.0583333 0 0 0 96.308333 112.18333 A 1.0583333 1.0583333 0 0 0 97.366666 111.125 A 1.0583333 1.0583333 0 0 0 96.308333 110.06667 z M 106.89167 110.06667 A 1.0583333 1.0583333 0 0 0 105.83333 111.125 A 1.0583333 1.0583333 0 0 0 106.89167 112.18333 A 1.0583333 1.0583333 0 0 0 107.95 111.125 A 1.0583333 1.0583333 0 0 0 106.89167 110.06667 z M 117.475 110.06667 A 1.0583333 1.0583333 0 0 0 116.41667 111.125 A 1.0583333 1.0583333 0 0 0 117.475 112.18333 A 1.0583333 1.0583333 0 0 0 118.53333 111.125 A 1.0583333 1.0583333 0 0 0 117.475 110.06667 z M 6.35 115.35833 A 1.0583333 1.0583333 0 0 0 5.2916666 116.41667 A 1.0583333 1.0583333 0 0 0 6.35 117.475 A 1.0583333 1.0583333 0 0 0 7.4083333 116.41667 A 1.0583333 1.0583333 0 0 0 6.35 115.35833 z M 16.933333 115.35833 A 1.0583333 1.0583333 0 0 0 15.875 116.41667 A 1.0583333 1.0583333 0 0 0 16.933333 117.475 A 1.0583333 1.0583333 0 0 0 17.991667 116.41667 A 1.0583333 1.0583333 0 0 0 16.933333 115.35833 z M 27.516666 115.35833 A 1.0583333 1.0583333 0 0 0 26.458333 116.41667 A 1.0583333 1.0583333 0 0 0 27.516666 117.475 A 1.0583333 1.0583333 0 0 0 28.575 116.41667 A 1.0583333 1.0583333 0 0 0 27.516666 115.35833 z M 38.1 115.35833 A 1.0583333 1.0583333 0 0 0 37.041666 116.41667 A 1.0583333 1.0583333 0 0 0 38.1 117.475 A 1.0583333 1.0583333 0 0 0 39.158333 116.41667 A 1.0583333 1.0583333 0 0 0 38.1 115.35833 z M 48.683333 115.35833 A 1.0583333 1.0583333 0 0 0 47.625 116.41667 A 1.0583333 1.0583333 0 0 0 48.683333 117.475 A 1.0583333 1.0583333 0 0 0 49.741666 116.41667 A 1.0583333 1.0583333 0 0 0 48.683333 115.35833 z M 59.266666 115.35833 A 1.0583333 1.0583333 0 0 0 58.208333 116.41667 A 1.0583333 1.0583333 0 0 0 59.266666 117.475 A 1.0583333 1.0583333 0 0 0 60.325 116.41667 A 1.0583333 1.0583333 0 0 0 59.266666 115.35833 z M 69.849999 115.35833 A 1.0583333 1.0583333 0 0 0 68.791666 116.41667 A 1.0583333 1.0583333 0 0 0 69.849999 117.475 A 1.0583333 1.0583333 0 0 0 70.908333 116.41667 A 1.0583333 1.0583333 0 0 0 69.849999 115.35833 z M 80.433333 115.35833 A 1.0583333 1.0583333 0 0 0 79.374999 116.41667 A 1.0583333 1.0583333 0 0 0 80.433333 117.475 A 1.0583333 1.0583333 0 0 0 81.491666 116.41667 A 1.0583333 1.0583333 0 0 0 80.433333 115.35833 z M 91.016666 115.35833 A 1.0583333 1.0583333 0 0 0 89.958333 116.41667 A 1.0583333 1.0583333 0 0 0 91.016666 117.475 A 1.0583333 1.0583333 0 0 0 92.074999 116.41667 A 1.0583333 1.0583333 0 0 0 91.016666 115.35833 z M 101.6 115.35833 A 1.0583333 1.0583333 0 0 0 100.54167 116.41667 A 1.0583333 1.0583333 0 0 0 101.6 117.475 A 1.0583333 1.0583333 0 0 0 102.65833 116.41667 A 1.0583333 1.0583333 0 0 0 101.6 115.35833 z M 112.18333 115.35833 A 1.0583333 1.0583333 0 0 0 111.125 116.41667 A 1.0583333 1.0583333 0 0 0 112.18333 117.475 A 1.0583333 1.0583333 0 0 0 113.24167 116.41667 A 1.0583333 1.0583333 0 0 0 112.18333 115.35833 z M 1.0583333 120.65 A 1.0583333 1.0583333 0 0 0 0 121.70833 A 1.0583333 1.0583333 0 0 0 1.0583333 122.76667 A 1.0583333 1.0583333 0 0 0 2.1166667 121.70833 A 1.0583333 1.0583333 0 0 0 1.0583333 120.65 z M 11.641667 120.65 A 1.0583333 1.0583333 0 0 0 10.583333 121.70833 A 1.0583333 1.0583333 0 0 0 11.641667 122.76667 A 1.0583333 1.0583333 0 0 0 12.7 121.70833 A 1.0583333 1.0583333 0 0 0 11.641667 120.65 z M 22.225 120.65 A 1.0583333 1.0583333 0 0 0 21.166667 121.70833 A 1.0583333 1.0583333 0 0 0 22.225 122.76667 A 1.0583333 1.0583333 0 0 0 23.283333 121.70833 A 1.0583333 1.0583333 0 0 0 22.225 120.65 z M 32.808333 120.65 A 1.0583333 1.0583333 0 0 0 31.75 121.70833 A 1.0583333 1.0583333 0 0 0 32.808333 122.76667 A 1.0583333 1.0583333 0 0 0 33.866666 121.70833 A 1.0583333 1.0583333 0 0 0 32.808333 120.65 z M 43.391666 120.65 A 1.0583333 1.0583333 0 0 0 42.333333 121.70833 A 1.0583333 1.0583333 0 0 0 43.391666 122.76667 A 1.0583333 1.0583333 0 0 0 44.45 121.70833 A 1.0583333 1.0583333 0 0 0 43.391666 120.65 z M 53.975 120.65 A 1.0583333 1.0583333 0 0 0 52.916666 121.70833 A 1.0583333 1.0583333 0 0 0 53.975 122.76667 A 1.0583333 1.0583333 0 0 0 55.033333 121.70833 A 1.0583333 1.0583333 0 0 0 53.975 120.65 z M 64.558333 120.65 A 1.0583333 1.0583333 0 0 0 63.5 121.70833 A 1.0583333 1.0583333 0 0 0 64.558333 122.76667 A 1.0583333 1.0583333 0 0 0 65.616666 121.70833 A 1.0583333 1.0583333 0 0 0 64.558333 120.65 z M 75.141666 120.65 A 1.0583333 1.0583333 0 0 0 74.083333 121.70833 A 1.0583333 1.0583333 0 0 0 75.141666 122.76667 A 1.0583333 1.0583333 0 0 0 76.199999 121.70833 A 1.0583333 1.0583333 0 0 0 75.141666 120.65 z M 85.724999 120.65 A 1.0583333 1.0583333 0 0 0 84.666666 121.70833 A 1.0583333 1.0583333 0 0 0 85.724999 122.76667 A 1.0583333 1.0583333 0 0 0 86.783333 121.70833 A 1.0583333 1.0583333 0 0 0 85.724999 120.65 z M 96.308333 120.65 A 1.0583333 1.0583333 0 0 0 95.249999 121.70833 A 1.0583333 1.0583333 0 0 0 96.308333 122.76667 A 1.0583333 1.0583333 0 0 0 97.366666 121.70833 A 1.0583333 1.0583333 0 0 0 96.308333 120.65 z M 106.89167 120.65 A 1.0583333 1.0583333 0 0 0 105.83333 121.70833 A 1.0583333 1.0583333 0 0 0 106.89167 122.76667 A 1.0583333 1.0583333 0 0 0 107.95 121.70833 A 1.0583333 1.0583333 0 0 0 106.89167 120.65 z M 117.475 120.65 A 1.0583333 1.0583333 0 0 0 116.41667 121.70833 A 1.0583333 1.0583333 0 0 0 117.475 122.76667 A 1.0583333 1.0583333 0 0 0 118.53333 121.70833 A 1.0583333 1.0583333 0 0 0 117.475 120.65 z M 6.35 125.94167 A 1.0583333 1.0583333 0 0 0 5.2916666 127 A 1.0583333 1.0583333 0 0 0 6.35 128.05833 A 1.0583333 1.0583333 0 0 0 7.4083333 127 A 1.0583333 1.0583333 0 0 0 6.35 125.94167 z M 16.933333 125.94167 A 1.0583333 1.0583333 0 0 0 15.875 127 A 1.0583333 1.0583333 0 0 0 16.933333 128.05833 A 1.0583333 1.0583333 0 0 0 17.991667 127 A 1.0583333 1.0583333 0 0 0 16.933333 125.94167 z M 27.516666 125.94167 A 1.0583333 1.0583333 0 0 0 26.458333 127 A 1.0583333 1.0583333 0 0 0 27.516666 128.05833 A 1.0583333 1.0583333 0 0 0 28.575 127 A 1.0583333 1.0583333 0 0 0 27.516666 125.94167 z M 38.1 125.94167 A 1.0583333 1.0583333 0 0 0 37.041666 127 A 1.0583333 1.0583333 0 0 0 38.1 128.05833 A 1.0583333 1.0583333 0 0 0 39.158333 127 A 1.0583333 1.0583333 0 0 0 38.1 125.94167 z M 48.683333 125.94167 A 1.0583333 1.0583333 0 0 0 47.625 127 A 1.0583333 1.0583333 0 0 0 48.683333 128.05833 A 1.0583333 1.0583333 0 0 0 49.741666 127 A 1.0583333 1.0583333 0 0 0 48.683333 125.94167 z M 59.266666 125.94167 A 1.0583333 1.0583333 0 0 0 58.208333 127 A 1.0583333 1.0583333 0 0 0 59.266666 128.05833 A 1.0583333 1.0583333 0 0 0 60.325 127 A 1.0583333 1.0583333 0 0 0 59.266666 125.94167 z M 69.849999 125.94167 A 1.0583333 1.0583333 0 0 0 68.791666 127 A 1.0583333 1.0583333 0 0 0 69.849999 128.05833 A 1.0583333 1.0583333 0 0 0 70.908333 127 A 1.0583333 1.0583333 0 0 0 69.849999 125.94167 z M 80.433333 125.94167 A 1.0583333 1.0583333 0 0 0 79.374999 127 A 1.0583333 1.0583333 0 0 0 80.433333 128.05833 A 1.0583333 1.0583333 0 0 0 81.491666 127 A 1.0583333 1.0583333 0 0 0 80.433333 125.94167 z M 91.016666 125.94167 A 1.0583333 1.0583333 0 0 0 89.958333 127 A 1.0583333 1.0583333 0 0 0 91.016666 128.05833 A 1.0583333 1.0583333 0 0 0 92.074999 127 A 1.0583333 1.0583333 0 0 0 91.016666 125.94167 z M 101.6 125.94167 A 1.0583333 1.0583333 0 0 0 100.54167 127 A 1.0583333 1.0583333 0 0 0 101.6 128.05833 A 1.0583333 1.0583333 0 0 0 102.65833 127 A 1.0583333 1.0583333 0 0 0 101.6 125.94167 z M 112.18333 125.94167 A 1.0583333 1.0583333 0 0 0 111.125 127 A 1.0583333 1.0583333 0 0 0 112.18333 128.05833 A 1.0583333 1.0583333 0 0 0 113.24167 127 A 1.0583333 1.0583333 0 0 0 112.18333 125.94167 z M 1.0583333 131.23333 A 1.0583333 1.0583333 0 0 0 0 132.29167 A 1.0583333 1.0583333 0 0 0 1.0583333 133.35 A 1.0583333 1.0583333 0 0 0 2.1166667 132.29167 A 1.0583333 1.0583333 0 0 0 1.0583333 131.23333 z M 11.641667 131.23333 A 1.0583333 1.0583333 0 0 0 10.583333 132.29167 A 1.0583333 1.0583333 0 0 0 11.641667 133.35 A 1.0583333 1.0583333 0 0 0 12.7 132.29167 A 1.0583333 1.0583333 0 0 0 11.641667 131.23333 z M 22.225 131.23333 A 1.0583333 1.0583333 0 0 0 21.166667 132.29167 A 1.0583333 1.0583333 0 0 0 22.225 133.35 A 1.0583333 1.0583333 0 0 0 23.283333 132.29167 A 1.0583333 1.0583333 0 0 0 22.225 131.23333 z M 32.808333 131.23333 A 1.0583333 1.0583333 0 0 0 31.75 132.29167 A 1.0583333 1.0583333 0 0 0 32.808333 133.35 A 1.0583333 1.0583333 0 0 0 33.866666 132.29167 A 1.0583333 1.0583333 0 0 0 32.808333 131.23333 z M 43.391666 131.23333 A 1.0583333 1.0583333 0 0 0 42.333333 132.29167 A 1.0583333 1.0583333 0 0 0 43.391666 133.35 A 1.0583333 1.0583333 0 0 0 44.45 132.29167 A 1.0583333 1.0583333 0 0 0 43.391666 131.23333 z M 53.975 131.23333 A 1.0583333 1.0583333 0 0 0 52.916666 132.29167 A 1.0583333 1.0583333 0 0 0 53.975 133.35 A 1.0583333 1.0583333 0 0 0 55.033333 132.29167 A 1.0583333 1.0583333 0 0 0 53.975 131.23333 z M 64.558333 131.23333 A 1.0583333 1.0583333 0 0 0 63.5 132.29167 A 1.0583333 1.0583333 0 0 0 64.558333 133.35 A 1.0583333 1.0583333 0 0 0 65.616666 132.29167 A 1.0583333 1.0583333 0 0 0 64.558333 131.23333 z M 75.141666 131.23333 A 1.0583333 1.0583333 0 0 0 74.083333 132.29167 A 1.0583333 1.0583333 0 0 0 75.141666 133.35 A 1.0583333 1.0583333 0 0 0 76.199999 132.29167 A 1.0583333 1.0583333 0 0 0 75.141666 131.23333 z M 85.724999 131.23333 A 1.0583333 1.0583333 0 0 0 84.666666 132.29167 A 1.0583333 1.0583333 0 0 0 85.724999 133.35 A 1.0583333 1.0583333 0 0 0 86.783333 132.29167 A 1.0583333 1.0583333 0 0 0 85.724999 131.23333 z M 96.308333 131.23333 A 1.0583333 1.0583333 0 0 0 95.249999 132.29167 A 1.0583333 1.0583333 0 0 0 96.308333 133.35 A 1.0583333 1.0583333 0 0 0 97.366666 132.29167 A 1.0583333 1.0583333 0 0 0 96.308333 131.23333 z M 106.89167 131.23333 A 1.0583333 1.0583333 0 0 0 105.83333 132.29167 A 1.0583333 1.0583333 0 0 0 106.89167 133.35 A 1.0583333 1.0583333 0 0 0 107.95 132.29167 A 1.0583333 1.0583333 0 0 0 106.89167 131.23333 z M 117.475 131.23333 A 1.0583333 1.0583333 0 0 0 116.41667 132.29167 A 1.0583333 1.0583333 0 0 0 117.475 133.35 A 1.0583333 1.0583333 0 0 0 118.53333 132.29167 A 1.0583333 1.0583333 0 0 0 117.475 131.23333 z M 6.35 136.525 A 1.0583333 1.0583333 0 0 0 5.2916666 137.58333 A 1.0583333 1.0583333 0 0 0 6.35 138.64167 A 1.0583333 1.0583333 0 0 0 7.4083333 137.58333 A 1.0583333 1.0583333 0 0 0 6.35 136.525 z M 16.933333 136.525 A 1.0583333 1.0583333 0 0 0 15.875 137.58333 A 1.0583333 1.0583333 0 0 0 16.933333 138.64167 A 1.0583333 1.0583333 0 0 0 17.991667 137.58333 A 1.0583333 1.0583333 0 0 0 16.933333 136.525 z M 27.516666 136.525 A 1.0583333 1.0583333 0 0 0 26.458333 137.58333 A 1.0583333 1.0583333 0 0 0 27.516666 138.64167 A 1.0583333 1.0583333 0 0 0 28.575 137.58333 A 1.0583333 1.0583333 0 0 0 27.516666 136.525 z M 38.1 136.525 A 1.0583333 1.0583333 0 0 0 37.041666 137.58333 A 1.0583333 1.0583333 0 0 0 38.1 138.64167 A 1.0583333 1.0583333 0 0 0 39.158333 137.58333 A 1.0583333 1.0583333 0 0 0 38.1 136.525 z M 48.683333 136.525 A 1.0583333 1.0583333 0 0 0 47.625 137.58333 A 1.0583333 1.0583333 0 0 0 48.683333 138.64167 A 1.0583333 1.0583333 0 0 0 49.741666 137.58333 A 1.0583333 1.0583333 0 0 0 48.683333 136.525 z M 59.266666 136.525 A 1.0583333 1.0583333 0 0 0 58.208333 137.58333 A 1.0583333 1.0583333 0 0 0 59.266666 138.64167 A 1.0583333 1.0583333 0 0 0 60.325 137.58333 A 1.0583333 1.0583333 0 0 0 59.266666 136.525 z M 69.849999 136.525 A 1.0583333 1.0583333 0 0 0 68.791666 137.58333 A 1.0583333 1.0583333 0 0 0 69.849999 138.64167 A 1.0583333 1.0583333 0 0 0 70.908333 137.58333 A 1.0583333 1.0583333 0 0 0 69.849999 136.525 z M 80.433333 136.525 A 1.0583333 1.0583333 0 0 0 79.374999 137.58333 A 1.0583333 1.0583333 0 0 0 80.433333 138.64167 A 1.0583333 1.0583333 0 0 0 81.491666 137.58333 A 1.0583333 1.0583333 0 0 0 80.433333 136.525 z M 91.016666 136.525 A 1.0583333 1.0583333 0 0 0 89.958333 137.58333 A 1.0583333 1.0583333 0 0 0 91.016666 138.64167 A 1.0583333 1.0583333 0 0 0 92.074999 137.58333 A 1.0583333 1.0583333 0 0 0 91.016666 136.525 z M 101.6 136.525 A 1.0583333 1.0583333 0 0 0 100.54167 137.58333 A 1.0583333 1.0583333 0 0 0 101.6 138.64167 A 1.0583333 1.0583333 0 0 0 102.65833 137.58333 A 1.0583333 1.0583333 0 0 0 101.6 136.525 z M 112.18333 136.525 A 1.0583333 1.0583333 0 0 0 111.125 137.58333 A 1.0583333 1.0583333 0 0 0 112.18333 138.64167 A 1.0583333 1.0583333 0 0 0 113.24167 137.58333 A 1.0583333 1.0583333 0 0 0 112.18333 136.525 z M 1.0583333 141.81667 A 1.0583333 1.0583333 0 0 0 0 142.875 A 1.0583333 1.0583333 0 0 0 1.0583333 143.93333 A 1.0583333 1.0583333 0 0 0 2.1166667 142.875 A 1.0583333 1.0583333 0 0 0 1.0583333 141.81667 z M 11.641667 141.81667 A 1.0583333 1.0583333 0 0 0 10.583333 142.875 A 1.0583333 1.0583333 0 0 0 11.641667 143.93333 A 1.0583333 1.0583333 0 0 0 12.7 142.875 A 1.0583333 1.0583333 0 0 0 11.641667 141.81667 z M 22.225 141.81667 A 1.0583333 1.0583333 0 0 0 21.166667 142.875 A 1.0583333 1.0583333 0 0 0 22.225 143.93333 A 1.0583333 1.0583333 0 0 0 23.283333 142.875 A 1.0583333 1.0583333 0 0 0 22.225 141.81667 z M 32.808333 141.81667 A 1.0583333 1.0583333 0 0 0 31.75 142.875 A 1.0583333 1.0583333 0 0 0 32.808333 143.93333 A 1.0583333 1.0583333 0 0 0 33.866666 142.875 A 1.0583333 1.0583333 0 0 0 32.808333 141.81667 z M 43.391666 141.81667 A 1.0583333 1.0583333 0 0 0 42.333333 142.875 A 1.0583333 1.0583333 0 0 0 43.391666 143.93333 A 1.0583333 1.0583333 0 0 0 44.45 142.875 A 1.0583333 1.0583333 0 0 0 43.391666 141.81667 z M 53.975 141.81667 A 1.0583333 1.0583333 0 0 0 52.916666 142.875 A 1.0583333 1.0583333 0 0 0 53.975 143.93333 A 1.0583333 1.0583333 0 0 0 55.033333 142.875 A 1.0583333 1.0583333 0 0 0 53.975 141.81667 z M 64.558333 141.81667 A 1.0583333 1.0583333 0 0 0 63.5 142.875 A 1.0583333 1.0583333 0 0 0 64.558333 143.93333 A 1.0583333 1.0583333 0 0 0 65.616666 142.875 A 1.0583333 1.0583333 0 0 0 64.558333 141.81667 z M 75.141666 141.81667 A 1.0583333 1.0583333 0 0 0 74.083333 142.875 A 1.0583333 1.0583333 0 0 0 75.141666 143.93333 A 1.0583333 1.0583333 0 0 0 76.199999 142.875 A 1.0583333 1.0583333 0 0 0 75.141666 141.81667 z M 85.724999 141.81667 A 1.0583333 1.0583333 0 0 0 84.666666 142.875 A 1.0583333 1.0583333 0 0 0 85.724999 143.93333 A 1.0583333 1.0583333 0 0 0 86.783333 142.875 A 1.0583333 1.0583333 0 0 0 85.724999 141.81667 z M 96.308333 141.81667 A 1.0583333 1.0583333 0 0 0 95.249999 142.875 A 1.0583333 1.0583333 0 0 0 96.308333 143.93333 A 1.0583333 1.0583333 0 0 0 97.366666 142.875 A 1.0583333 1.0583333 0 0 0 96.308333 141.81667 z M 106.89167 141.81667 A 1.0583333 1.0583333 0 0 0 105.83333 142.875 A 1.0583333 1.0583333 0 0 0 106.89167 143.93333 A 1.0583333 1.0583333 0 0 0 107.95 142.875 A 1.0583333 1.0583333 0 0 0 106.89167 141.81667 z M 117.475 141.81667 A 1.0583333 1.0583333 0 0 0 116.41667 142.875 A 1.0583333 1.0583333 0 0 0 117.475 143.93333 A 1.0583333 1.0583333 0 0 0 118.53333 142.875 A 1.0583333 1.0583333 0 0 0 117.475 141.81667 z " /></g><g
       id="g1193"
       transform="matrix(-1,0,0,1,634.99999,0)"><path
         id="path1189"
         style="opacity:0.025;fill:#483d8b;fill-opacity:1;stroke-width:14.3717;stroke-linecap:round;stroke-linejoin:round;stroke-opacity:0.496601"
         d="m 0,46.302079 v 3.96875 89.958341 3.96875 H 3.96875 14.201717 115.09375 c 2.19868,0 3.96875,-1.77007 3.96875,-3.96875 V 50.270829 c 0,-2.198685 -1.77007,-3.96875 -3.96875,-3.96875 H 14.201717 3.96875 Z" /><path
         id="path1191"
         style="opacity:0.15;fill:#7b68ee;fill-opacity:1;stroke-width:9.09842;stroke-linecap:round;stroke-linejoin:round;stroke-opacity:0.496601"
         d="M 1.0583333,46.566666 A 1.0583333,1.0583333 0 0 0 0,47.625 1.0583333,1.0583333 0 0 0 1.0583333,48.683333 1.0583333,1.0583333 0 0 0 2.1166667,47.625 1.0583333,1.0583333 0 0 0 1.0583333,46.566666 Z m 10.5833337,0 A 1.0583333,1.0583333 0 0 0 10.583333,47.625 1.0583333,1.0583333 0 0 0 11.641667,48.683333 1.0583333,1.0583333 0 0 0 12.7,47.625 1.0583333,1.0583333 0 0 0 11.641667,46.566666 Z m 10.583333,0 A 1.0583333,1.0583333 0 0 0 21.166667,47.625 1.0583333,1.0583333 0 0 0 22.225,48.683333 1.0583333,1.0583333 0 0 0 23.283333,47.625 1.0583333,1.0583333 0 0 0 22.225,46.566666 Z m 10.583333,0 A 1.0583333,1.0583333 0 0 0 31.75,47.625 1.0583333,1.0583333 0 0 0 32.808333,48.683333 1.0583333,1.0583333 0 0 0 33.866666,47.625 1.0583333,1.0583333 0 0 0 32.808333,46.566666 Z m 10.583333,0 A 1.0583333,1.0583333 0 0 0 42.333333,47.625 1.0583333,1.0583333 0 0 0 43.391666,48.683333 1.0583333,1.0583333 0 0 0 44.45,47.625 1.0583333,1.0583333 0 0 0 43.391666,46.566666 Z m 10.583334,0 A 1.0583333,1.0583333 0 0 0 52.916666,47.625 1.0583333,1.0583333 0 0 0 53.975,48.683333 1.0583333,1.0583333 0 0 0 55.033333,47.625 1.0583333,1.0583333 0 0 0 53.975,46.566666 Z m 10.583333,0 A 1.0583333,1.0583333 0 0 0 63.5,47.625 1.0583333,1.0583333 0 0 0 64.558333,48.683333 1.0583333,1.0583333 0 0 0 65.616666,47.625 1.0583333,1.0583333 0 0 0 64.558333,46.566666 Z m 10.583333,0 A 1.0583333,1.0583333 0 0 0 74.083333,47.625 1.0583333,1.0583333 0 0 0 75.141666,48.683333 1.0583333,1.0583333 0 0 0 76.199999,47.625 1.0583333,1.0583333 0 0 0 75.141666,46.566666 Z m 10.583333,0 A 1.0583333,1.0583333 0 0 0 84.666666,47.625 1.0583333,1.0583333 0 0 0 85.724999,48.683333 1.0583333,1.0583333 0 0 0 86.783333,47.625 1.0583333,1.0583333 0 0 0 85.724999,46.566666 Z m 10.583334,0 A 1.0583333,1.0583333 0 0 0 95.249999,47.625 1.0583333,1.0583333 0 0 0 96.308333,48.683333 1.0583333,1.0583333 0 0 0 97.366666,47.625 1.0583333,1.0583333 0 0 0 96.308333,46.566666 Z m 10.583337,0 A 1.0583333,1.0583333 0 0 0 105.83333,47.625 1.0583333,1.0583333 0 0 0 106.89167,48.683333 1.0583333,1.0583333 0 0 0 107.95,47.625 1.0583333,1.0583333 0 0 0 106.89167,46.566666 Z m 10.58333,0 A 1.0583333,1.0583333 0 0 0 116.41667,47.625 1.0583333,1.0583333 0 0 0 117.475,48.683333 1.0583333,1.0583333 0 0 0 118.53333,47.625 1.0583333,1.0583333 0 0 0 117.475,46.566666 Z M 6.35,51.858333 A 1.0583333,1.0583333 0 0 0 5.2916666,52.916666 1.0583333,1.0583333 0 0 0 6.35,53.975 1.0583333,1.0583333 0 0 0 7.4083333,52.916666 1.0583333,1.0583333 0 0 0 6.35,51.858333 Z m 10.583333,0 A 1.0583333,1.0583333 0 0 0 15.875,52.916666 1.0583333,1.0583333 0 0 0 16.933333,53.975 1.0583333,1.0583333 0 0 0 17.991667,52.916666 1.0583333,1.0583333 0 0 0 16.933333,51.858333 Z m 10.583333,0 A 1.0583333,1.0583333 0 0 0 26.458333,52.916666 1.0583333,1.0583333 0 0 0 27.516666,53.975 1.0583333,1.0583333 0 0 0 28.575,52.916666 1.0583333,1.0583333 0 0 0 27.516666,51.858333 Z m 10.583334,0 A 1.0583333,1.0583333 0 0 0 37.041666,52.916666 1.0583333,1.0583333 0 0 0 38.1,53.975 1.0583333,1.0583333 0 0 0 39.158333,52.916666 1.0583333,1.0583333 0 0 0 38.1,51.858333 Z m 10.583333,0 A 1.0583333,1.0583333 0 0 0 47.625,52.916666 1.0583333,1.0583333 0 0 0 48.683333,53.975 1.0583333,1.0583333 0 0 0 49.741666,52.916666 1.0583333,1.0583333 0 0 0 48.683333,51.858333 Z m 10.583333,0 A 1.0583333,1.0583333 0 0 0 58.208333,52.916666 1.0583333,1.0583333 0 0 0 59.266666,53.975 1.0583333,1.0583333 0 0 0 60.325,52.916666 1.0583333,1.0583333 0 0 0 59.266666,51.858333 Z m 10.583333,0 a 1.0583333,1.0583333 0 0 0 -1.058333,1.058333 1.0583333,1.0583333 0 0 0 1.058333,1.058334 1.0583333,1.0583333 0 0 0 1.058334,-1.058334 1.0583333,1.0583333 0 0 0 -1.058334,-1.058333 z m 10.583334,0 a 1.0583333,1.0583333 0 0 0 -1.058334,1.058333 1.0583333,1.0583333 0 0 0 1.058334,1.058334 1.0583333,1.0583333 0 0 0 1.058333,-1.058334 1.0583333,1.0583333 0 0 0 -1.058333,-1.058333 z m 10.583333,0 a 1.0583333,1.0583333 0 0 0 -1.058333,1.058333 1.0583333,1.0583333 0 0 0 1.058333,1.058334 1.0583333,1.0583333 0 0 0 1.058333,-1.058334 1.0583333,1.0583333 0 0 0 -1.058333,-1.058333 z m 10.583334,0 A 1.0583333,1.0583333 0 0 0 100.54167,52.916666 1.0583333,1.0583333 0 0 0 101.6,53.975 1.0583333,1.0583333 0 0 0 102.65833,52.916666 1.0583333,1.0583333 0 0 0 101.6,51.858333 Z m 10.58333,0 a 1.0583333,1.0583333 0 0 0 -1.05833,1.058333 1.0583333,1.0583333 0 0 0 1.05833,1.058334 1.0583333,1.0583333 0 0 0 1.05834,-1.058334 1.0583333,1.0583333 0 0 0 -1.05834,-1.058333 z M 1.0583333,57.15 A 1.0583333,1.0583333 0 0 0 0,58.208333 1.0583333,1.0583333 0 0 0 1.0583333,59.266666 1.0583333,1.0583333 0 0 0 2.1166667,58.208333 1.0583333,1.0583333 0 0 0 1.0583333,57.15 Z m 10.5833337,0 a 1.0583333,1.0583333 0 0 0 -1.058334,1.058333 1.0583333,1.0583333 0 0 0 1.058334,1.058333 A 1.0583333,1.0583333 0 0 0 12.7,58.208333 1.0583333,1.0583333 0 0 0 11.641667,57.15 Z m 10.583333,0 A 1.0583333,1.0583333 0 0 0 21.166667,58.208333 1.0583333,1.0583333 0 0 0 22.225,59.266666 1.0583333,1.0583333 0 0 0 23.283333,58.208333 1.0583333,1.0583333 0 0 0 22.225,57.15 Z m 10.583333,0 A 1.0583333,1.0583333 0 0 0 31.75,58.208333 1.0583333,1.0583333 0 0 0 32.808333,59.266666 1.0583333,1.0583333 0 0 0 33.866666,58.208333 1.0583333,1.0583333 0 0 0 32.808333,57.15 Z m 10.583333,0 a 1.0583333,1.0583333 0 0 0 -1.058333,1.058333 1.0583333,1.0583333 0 0 0 1.058333,1.058333 A 1.0583333,1.0583333 0 0 0 44.45,58.208333 1.0583333,1.0583333 0 0 0 43.391666,57.15 Z m 10.583334,0 A 1.0583333,1.0583333 0 0 0 52.916666,58.208333 1.0583333,1.0583333 0 0 0 53.975,59.266666 1.0583333,1.0583333 0 0 0 55.033333,58.208333 1.0583333,1.0583333 0 0 0 53.975,57.15 Z m 10.583333,0 A 1.0583333,1.0583333 0 0 0 63.5,58.208333 1.0583333,1.0583333 0 0 0 64.558333,59.266666 1.0583333,1.0583333 0 0 0 65.616666,58.208333 1.0583333,1.0583333 0 0 0 64.558333,57.15 Z m 10.583333,0 a 1.0583333,1.0583333 0 0 0 -1.058333,1.058333 1.0583333,1.0583333 0 0 0 1.058333,1.058333 1.0583333,1.0583333 0 0 0 1.058333,-1.058333 A 1.0583333,1.0583333 0 0 0 75.141666,57.15 Z m 10.583333,0 a 1.0583333,1.0583333 0 0 0 -1.058333,1.058333 1.0583333,1.0583333 0 0 0 1.058333,1.058333 1.0583333,1.0583333 0 0 0 1.058334,-1.058333 A 1.0583333,1.0583333 0 0 0 85.724999,57.15 Z m 10.583334,0 a 1.0583333,1.0583333 0 0 0 -1.058334,1.058333 1.0583333,1.0583333 0 0 0 1.058334,1.058333 1.0583333,1.0583333 0 0 0 1.058333,-1.058333 A 1.0583333,1.0583333 0 0 0 96.308333,57.15 Z m 10.583337,0 a 1.0583333,1.0583333 0 0 0 -1.05834,1.058333 1.0583333,1.0583333 0 0 0 1.05834,1.058333 A 1.0583333,1.0583333 0 0 0 107.95,58.208333 1.0583333,1.0583333 0 0 0 106.89167,57.15 Z m 10.58333,0 a 1.0583333,1.0583333 0 0 0 -1.05833,1.058333 1.0583333,1.0583333 0 0 0 1.05833,1.058333 1.0583333,1.0583333 0 0 0 1.05833,-1.058333 A 1.0583333,1.0583333 0 0 0 117.475,57.15 Z M 6.35,62.441666 A 1.0583333,1.0583333 0 0 0 5.2916666,63.5 1.0583333,1.0583333 0 0 0 6.35,64.558333 1.0583333,1.0583333 0 0 0 7.4083333,63.5 1.0583333,1.0583333 0 0 0 6.35,62.441666 Z m 10.583333,0 A 1.0583333,1.0583333 0 0 0 15.875,63.5 1.0583333,1.0583333 0 0 0 16.933333,64.558333 1.0583333,1.0583333 0 0 0 17.991667,63.5 1.0583333,1.0583333 0 0 0 16.933333,62.441666 Z m 10.583333,0 A 1.0583333,1.0583333 0 0 0 26.458333,63.5 1.0583333,1.0583333 0 0 0 27.516666,64.558333 1.0583333,1.0583333 0 0 0 28.575,63.5 1.0583333,1.0583333 0 0 0 27.516666,62.441666 Z m 10.583334,0 A 1.0583333,1.0583333 0 0 0 37.041666,63.5 1.0583333,1.0583333 0 0 0 38.1,64.558333 1.0583333,1.0583333 0 0 0 39.158333,63.5 1.0583333,1.0583333 0 0 0 38.1,62.441666 Z m 10.583333,0 A 1.0583333,1.0583333 0 0 0 47.625,63.5 1.0583333,1.0583333 0 0 0 48.683333,64.558333 1.0583333,1.0583333 0 0 0 49.741666,63.5 1.0583333,1.0583333 0 0 0 48.683333,62.441666 Z m 10.583333,0 A 1.0583333,1.0583333 0 0 0 58.208333,63.5 1.0583333,1.0583333 0 0 0 59.266666,64.558333 1.0583333,1.0583333 0 0 0 60.325,63.5 1.0583333,1.0583333 0 0 0 59.266666,62.441666 Z m 10.583333,0 A 1.0583333,1.0583333 0 0 0 68.791666,63.5 1.0583333,1.0583333 0 0 0 69.849999,64.558333 1.0583333,1.0583333 0 0 0 70.908333,63.5 1.0583333,1.0583333 0 0 0 69.849999,62.441666 Z m 10.583334,0 A 1.0583333,1.0583333 0 0 0 79.374999,63.5 1.0583333,1.0583333 0 0 0 80.433333,64.558333 1.0583333,1.0583333 0 0 0 81.491666,63.5 1.0583333,1.0583333 0 0 0 80.433333,62.441666 Z m 10.583333,0 A 1.0583333,1.0583333 0 0 0 89.958333,63.5 1.0583333,1.0583333 0 0 0 91.016666,64.558333 1.0583333,1.0583333 0 0 0 92.074999,63.5 1.0583333,1.0583333 0 0 0 91.016666,62.441666 Z m 10.583334,0 A 1.0583333,1.0583333 0 0 0 100.54167,63.5 1.0583333,1.0583333 0 0 0 101.6,64.558333 1.0583333,1.0583333 0 0 0 102.65833,63.5 1.0583333,1.0583333 0 0 0 101.6,62.441666 Z m 10.58333,0 A 1.0583333,1.0583333 0 0 0 111.125,63.5 1.0583333,1.0583333 0 0 0 112.18333,64.558333 1.0583333,1.0583333 0 0 0 113.24167,63.5 1.0583333,1.0583333 0 0 0 112.18333,62.441666 Z M 1.0583333,67.733333 A 1.0583333,1.0583333 0 0 0 0,68.791666 1.0583333,1.0583333 0 0 0 1.0583333,69.849999 1.0583333,1.0583333 0 0 0 2.1166667,68.791666 1.0583333,1.0583333 0 0 0 1.0583333,67.733333 Z m 10.5833337,0 a 1.0583333,1.0583333 0 0 0 -1.058334,1.058333 1.0583333,1.0583333 0 0 0 1.058334,1.058333 A 1.0583333,1.0583333 0 0 0 12.7,68.791666 1.0583333,1.0583333 0 0 0 11.641667,67.733333 Z m 10.583333,0 A 1.0583333,1.0583333 0 0 0 21.166667,68.791666 1.0583333,1.0583333 0 0 0 22.225,69.849999 1.0583333,1.0583333 0 0 0 23.283333,68.791666 1.0583333,1.0583333 0 0 0 22.225,67.733333 Z m 10.583333,0 A 1.0583333,1.0583333 0 0 0 31.75,68.791666 a 1.0583333,1.0583333 0 0 0 1.058333,1.058333 1.0583333,1.0583333 0 0 0 1.058333,-1.058333 1.0583333,1.0583333 0 0 0 -1.058333,-1.058333 z m 10.583333,0 a 1.0583333,1.0583333 0 0 0 -1.058333,1.058333 1.0583333,1.0583333 0 0 0 1.058333,1.058333 A 1.0583333,1.0583333 0 0 0 44.45,68.791666 1.0583333,1.0583333 0 0 0 43.391666,67.733333 Z m 10.583334,0 A 1.0583333,1.0583333 0 0 0 52.916666,68.791666 1.0583333,1.0583333 0 0 0 53.975,69.849999 1.0583333,1.0583333 0 0 0 55.033333,68.791666 1.0583333,1.0583333 0 0 0 53.975,67.733333 Z m 10.583333,0 A 1.0583333,1.0583333 0 0 0 63.5,68.791666 a 1.0583333,1.0583333 0 0 0 1.058333,1.058333 1.0583333,1.0583333 0 0 0 1.058333,-1.058333 1.0583333,1.0583333 0 0 0 -1.058333,-1.058333 z m 10.583333,0 a 1.0583333,1.0583333 0 0 0 -1.058333,1.058333 1.0583333,1.0583333 0 0 0 1.058333,1.058333 1.0583333,1.0583333 0 0 0 1.058333,-1.058333 1.0583333,1.0583333 0 0 0 -1.058333,-1.058333 z m 10.583333,0 a 1.0583333,1.0583333 0 0 0 -1.058333,1.058333 1.0583333,1.0583333 0 0 0 1.058333,1.058333 1.0583333,1.0583333 0 0 0 1.058334,-1.058333 1.0583333,1.0583333 0 0 0 -1.058334,-1.058333 z m 10.583334,0 a 1.0583333,1.0583333 0 0 0 -1.058334,1.058333 1.0583333,1.0583333 0 0 0 1.058334,1.058333 1.0583333,1.0583333 0 0 0 1.058333,-1.058333 1.0583333,1.0583333 0 0 0 -1.058333,-1.058333 z m 10.583337,0 a 1.0583333,1.0583333 0 0 0 -1.05834,1.058333 1.0583333,1.0583333 0 0 0 1.05834,1.058333 1.0583333,1.0583333 0 0 0 1.05833,-1.058333 1.0583333,1.0583333 0 0 0 -1.05833,-1.058333 z m 10.58333,0 a 1.0583333,1.0583333 0 0 0 -1.05833,1.058333 1.0583333,1.0583333 0 0 0 1.05833,1.058333 1.0583333,1.0583333 0 0 0 1.05833,-1.058333 1.0583333,1.0583333 0 0 0 -1.05833,-1.058333 z M 6.35,73.024999 A 1.0583333,1.0583333 0 0 0 5.2916666,74.083333 1.0583333,1.0583333 0 0 0 6.35,75.141666 1.0583333,1.0583333 0 0 0 7.4083333,74.083333 1.0583333,1.0583333 0 0 0 6.35,73.024999 Z m 10.583333,0 a 1.0583333,1.0583333 0 0 0 -1.058333,1.058334 1.0583333,1.0583333 0 0 0 1.058333,1.058333 1.0583333,1.0583333 0 0 0 1.058334,-1.058333 1.0583333,1.0583333 0 0 0 -1.058334,-1.058334 z m 10.583333,0 a 1.0583333,1.0583333 0 0 0 -1.058333,1.058334 1.0583333,1.0583333 0 0 0 1.058333,1.058333 1.0583333,1.0583333 0 0 0 1.058334,-1.058333 1.0583333,1.0583333 0 0 0 -1.058334,-1.058334 z m 10.583334,0 A 1.0583333,1.0583333 0 0 0 37.041666,74.083333 1.0583333,1.0583333 0 0 0 38.1,75.141666 1.0583333,1.0583333 0 0 0 39.158333,74.083333 1.0583333,1.0583333 0 0 0 38.1,73.024999 Z m 10.583333,0 a 1.0583333,1.0583333 0 0 0 -1.058333,1.058334 1.0583333,1.0583333 0 0 0 1.058333,1.058333 1.0583333,1.0583333 0 0 0 1.058333,-1.058333 1.0583333,1.0583333 0 0 0 -1.058333,-1.058334 z m 10.583333,0 a 1.0583333,1.0583333 0 0 0 -1.058333,1.058334 1.0583333,1.0583333 0 0 0 1.058333,1.058333 1.0583333,1.0583333 0 0 0 1.058334,-1.058333 1.0583333,1.0583333 0 0 0 -1.058334,-1.058334 z m 10.583333,0 a 1.0583333,1.0583333 0 0 0 -1.058333,1.058334 1.0583333,1.0583333 0 0 0 1.058333,1.058333 1.0583333,1.0583333 0 0 0 1.058334,-1.058333 1.0583333,1.0583333 0 0 0 -1.058334,-1.058334 z m 10.583334,0 a 1.0583333,1.0583333 0 0 0 -1.058334,1.058334 1.0583333,1.0583333 0 0 0 1.058334,1.058333 1.0583333,1.0583333 0 0 0 1.058333,-1.058333 1.0583333,1.0583333 0 0 0 -1.058333,-1.058334 z m 10.583333,0 a 1.0583333,1.0583333 0 0 0 -1.058333,1.058334 1.0583333,1.0583333 0 0 0 1.058333,1.058333 1.0583333,1.0583333 0 0 0 1.058333,-1.058333 1.0583333,1.0583333 0 0 0 -1.058333,-1.058334 z m 10.583334,0 a 1.0583333,1.0583333 0 0 0 -1.05833,1.058334 1.0583333,1.0583333 0 0 0 1.05833,1.058333 1.0583333,1.0583333 0 0 0 1.05833,-1.058333 A 1.0583333,1.0583333 0 0 0 101.6,73.024999 Z m 10.58333,0 a 1.0583333,1.0583333 0 0 0 -1.05833,1.058334 1.0583333,1.0583333 0 0 0 1.05833,1.058333 1.0583333,1.0583333 0 0 0 1.05834,-1.058333 1.0583333,1.0583333 0 0 0 -1.05834,-1.058334 z M 1.0583333,78.316666 A 1.0583333,1.0583333 0 0 0 0,79.374999 1.0583333,1.0583333 0 0 0 1.0583333,80.433333 1.0583333,1.0583333 0 0 0 2.1166667,79.374999 1.0583333,1.0583333 0 0 0 1.0583333,78.316666 Z m 10.5833337,0 a 1.0583333,1.0583333 0 0 0 -1.058334,1.058333 1.0583333,1.0583333 0 0 0 1.058334,1.058334 A 1.0583333,1.0583333 0 0 0 12.7,79.374999 1.0583333,1.0583333 0 0 0 11.641667,78.316666 Z m 10.583333,0 A 1.0583333,1.0583333 0 0 0 21.166667,79.374999 1.0583333,1.0583333 0 0 0 22.225,80.433333 1.0583333,1.0583333 0 0 0 23.283333,79.374999 1.0583333,1.0583333 0 0 0 22.225,78.316666 Z m 10.583333,0 A 1.0583333,1.0583333 0 0 0 31.75,79.374999 a 1.0583333,1.0583333 0 0 0 1.058333,1.058334 1.0583333,1.0583333 0 0 0 1.058333,-1.058334 1.0583333,1.0583333 0 0 0 -1.058333,-1.058333 z m 10.583333,0 a 1.0583333,1.0583333 0 0 0 -1.058333,1.058333 1.0583333,1.0583333 0 0 0 1.058333,1.058334 A 1.0583333,1.0583333 0 0 0 44.45,79.374999 1.0583333,1.0583333 0 0 0 43.391666,78.316666 Z m 10.583334,0 A 1.0583333,1.0583333 0 0 0 52.916666,79.374999 1.0583333,1.0583333 0 0 0 53.975,80.433333 1.0583333,1.0583333 0 0 0 55.033333,79.374999 1.0583333,1.0583333 0 0 0 53.975,78.316666 Z m 10.583333,0 A 1.0583333,1.0583333 0 0 0 63.5,79.374999 a 1.0583333,1.0583333 0 0 0 1.058333,1.058334 1.0583333,1.0583333 0 0 0 1.058333,-1.058334 1.0583333,1.0583333 0 0 0 -1.058333,-1.058333 z m 10.583333,0 a 1.0583333,1.0583333 0 0 0 -1.058333,1.058333 1.0583333,1.0583333 0 0 0 1.058333,1.058334 1.0583333,1.0583333 0 0 0 1.058333,-1.058334 1.0583333,1.0583333 0 0 0 -1.058333,-1.058333 z m 10.583333,0 a 1.0583333,1.0583333 0 0 0 -1.058333,1.058333 1.0583333,1.0583333 0 0 0 1.058333,1.058334 1.0583333,1.0583333 0 0 0 1.058334,-1.058334 1.0583333,1.0583333 0 0 0 -1.058334,-1.058333 z m 10.583334,0 a 1.0583333,1.0583333 0 0 0 -1.058334,1.058333 1.0583333,1.0583333 0 0 0 1.058334,1.058334 1.0583333,1.0583333 0 0 0 1.058333,-1.058334 1.0583333,1.0583333 0 0 0 -1.058333,-1.058333 z m 10.583337,0 a 1.0583333,1.0583333 0 0 0 -1.05834,1.058333 1.0583333,1.0583333 0 0 0 1.05834,1.058334 1.0583333,1.0583333 0 0 0 1.05833,-1.058334 1.0583333,1.0583333 0 0 0 -1.05833,-1.058333 z m 10.58333,0 a 1.0583333,1.0583333 0 0 0 -1.05833,1.058333 1.0583333,1.0583333 0 0 0 1.05833,1.058334 1.0583333,1.0583333 0 0 0 1.05833,-1.058334 1.0583333,1.0583333 0 0 0 -1.05833,-1.058333 z M 6.35,83.608333 A 1.0583333,1.0583333 0 0 0 5.2916666,84.666666 1.0583333,1.0583333 0 0 0 6.35,85.724999 1.0583333,1.0583333 0 0 0 7.4083333,84.666666 1.0583333,1.0583333 0 0 0 6.35,83.608333 Z m 10.583333,0 a 1.0583333,1.0583333 0 0 0 -1.058333,1.058333 1.0583333,1.0583333 0 0 0 1.058333,1.058333 1.0583333,1.0583333 0 0 0 1.058334,-1.058333 1.0583333,1.0583333 0 0 0 -1.058334,-1.058333 z m 10.583333,0 a 1.0583333,1.0583333 0 0 0 -1.058333,1.058333 1.0583333,1.0583333 0 0 0 1.058333,1.058333 1.0583333,1.0583333 0 0 0 1.058334,-1.058333 1.0583333,1.0583333 0 0 0 -1.058334,-1.058333 z m 10.583334,0 A 1.0583333,1.0583333 0 0 0 37.041666,84.666666 1.0583333,1.0583333 0 0 0 38.1,85.724999 1.0583333,1.0583333 0 0 0 39.158333,84.666666 1.0583333,1.0583333 0 0 0 38.1,83.608333 Z m 10.583333,0 a 1.0583333,1.0583333 0 0 0 -1.058333,1.058333 1.0583333,1.0583333 0 0 0 1.058333,1.058333 1.0583333,1.0583333 0 0 0 1.058333,-1.058333 1.0583333,1.0583333 0 0 0 -1.058333,-1.058333 z m 10.583333,0 a 1.0583333,1.0583333 0 0 0 -1.058333,1.058333 1.0583333,1.0583333 0 0 0 1.058333,1.058333 1.0583333,1.0583333 0 0 0 1.058334,-1.058333 1.0583333,1.0583333 0 0 0 -1.058334,-1.058333 z m 10.583333,0 a 1.0583333,1.0583333 0 0 0 -1.058333,1.058333 1.0583333,1.0583333 0 0 0 1.058333,1.058333 1.0583333,1.0583333 0 0 0 1.058334,-1.058333 1.0583333,1.0583333 0 0 0 -1.058334,-1.058333 z m 10.583334,0 a 1.0583333,1.0583333 0 0 0 -1.058334,1.058333 1.0583333,1.0583333 0 0 0 1.058334,1.058333 1.0583333,1.0583333 0 0 0 1.058333,-1.058333 1.0583333,1.0583333 0 0 0 -1.058333,-1.058333 z m 10.583333,0 a 1.0583333,1.0583333 0 0 0 -1.058333,1.058333 1.0583333,1.0583333 0 0 0 1.058333,1.058333 1.0583333,1.0583333 0 0 0 1.058333,-1.058333 1.0583333,1.0583333 0 0 0 -1.058333,-1.058333 z m 10.583334,0 a 1.0583333,1.0583333 0 0 0 -1.05833,1.058333 1.0583333,1.0583333 0 0 0 1.05833,1.058333 1.0583333,1.0583333 0 0 0 1.05833,-1.058333 A 1.0583333,1.0583333 0 0 0 101.6,83.608333 Z m 10.58333,0 a 1.0583333,1.0583333 0 0 0 -1.05833,1.058333 1.0583333,1.0583333 0 0 0 1.05833,1.058333 1.0583333,1.0583333 0 0 0 1.05834,-1.058333 1.0583333,1.0583333 0 0 0 -1.05834,-1.058333 z M 1.0583333,88.899999 A 1.0583333,1.0583333 0 0 0 0,89.958333 1.0583333,1.0583333 0 0 0 1.0583333,91.016666 1.0583333,1.0583333 0 0 0 2.1166667,89.958333 1.0583333,1.0583333 0 0 0 1.0583333,88.899999 Z m 10.5833337,0 a 1.0583333,1.0583333 0 0 0 -1.058334,1.058334 1.0583333,1.0583333 0 0 0 1.058334,1.058333 A 1.0583333,1.0583333 0 0 0 12.7,89.958333 1.0583333,1.0583333 0 0 0 11.641667,88.899999 Z m 10.583333,0 A 1.0583333,1.0583333 0 0 0 21.166667,89.958333 1.0583333,1.0583333 0 0 0 22.225,91.016666 1.0583333,1.0583333 0 0 0 23.283333,89.958333 1.0583333,1.0583333 0 0 0 22.225,88.899999 Z m 10.583333,0 A 1.0583333,1.0583333 0 0 0 31.75,89.958333 a 1.0583333,1.0583333 0 0 0 1.058333,1.058333 1.0583333,1.0583333 0 0 0 1.058333,-1.058333 1.0583333,1.0583333 0 0 0 -1.058333,-1.058334 z m 10.583333,0 a 1.0583333,1.0583333 0 0 0 -1.058333,1.058334 1.0583333,1.0583333 0 0 0 1.058333,1.058333 A 1.0583333,1.0583333 0 0 0 44.45,89.958333 1.0583333,1.0583333 0 0 0 43.391666,88.899999 Z m 10.583334,0 A 1.0583333,1.0583333 0 0 0 52.916666,89.958333 1.0583333,1.0583333 0 0 0 53.975,91.016666 1.0583333,1.0583333 0 0 0 55.033333,89.958333 1.0583333,1.0583333 0 0 0 53.975,88.899999 Z m 10.583333,0 A 1.0583333,1.0583333 0 0 0 63.5,89.958333 a 1.0583333,1.0583333 0 0 0 1.058333,1.058333 1.0583333,1.0583333 0 0 0 1.058333,-1.058333 1.0583333,1.0583333 0 0 0 -1.058333,-1.058334 z m 10.583333,0 a 1.0583333,1.0583333 0 0 0 -1.058333,1.058334 1.0583333,1.0583333 0 0 0 1.058333,1.058333 1.0583333,1.0583333 0 0 0 1.058333,-1.058333 1.0583333,1.0583333 0 0 0 -1.058333,-1.058334 z m 10.583333,0 a 1.0583333,1.0583333 0 0 0 -1.058333,1.058334 1.0583333,1.0583333 0 0 0 1.058333,1.058333 1.0583333,1.0583333 0 0 0 1.058334,-1.058333 1.0583333,1.0583333 0 0 0 -1.058334,-1.058334 z m 10.583334,0 a 1.0583333,1.0583333 0 0 0 -1.058334,1.058334 1.0583333,1.0583333 0 0 0 1.058334,1.058333 1.0583333,1.0583333 0 0 0 1.058333,-1.058333 1.0583333,1.0583333 0 0 0 -1.058333,-1.058334 z m 10.583337,0 a 1.0583333,1.0583333 0 0 0 -1.05834,1.058334 1.0583333,1.0583333 0 0 0 1.05834,1.058333 1.0583333,1.0583333 0 0 0 1.05833,-1.058333 1.0583333,1.0583333 0 0 0 -1.05833,-1.058334 z m 10.58333,0 a 1.0583333,1.0583333 0 0 0 -1.05833,1.058334 1.0583333,1.0583333 0 0 0 1.05833,1.058333 1.0583333,1.0583333 0 0 0 1.05833,-1.058333 1.0583333,1.0583333 0 0 0 -1.05833,-1.058334 z M 6.35,94.191666 A 1.0583333,1.0583333 0 0 0 5.2916666,95.249999 1.0583333,1.0583333 0 0 0 6.35,96.308333 1.0583333,1.0583333 0 0 0 7.4083333,95.249999 1.0583333,1.0583333 0 0 0 6.35,94.191666 Z m 10.583333,0 a 1.0583333,1.0583333 0 0 0 -1.058333,1.058333 1.0583333,1.0583333 0 0 0 1.058333,1.058334 1.0583333,1.0583333 0 0 0 1.058334,-1.058334 1.0583333,1.0583333 0 0 0 -1.058334,-1.058333 z m 10.583333,0 a 1.0583333,1.0583333 0 0 0 -1.058333,1.058333 1.0583333,1.0583333 0 0 0 1.058333,1.058334 1.0583333,1.0583333 0 0 0 1.058334,-1.058334 1.0583333,1.0583333 0 0 0 -1.058334,-1.058333 z m 10.583334,0 A 1.0583333,1.0583333 0 0 0 37.041666,95.249999 1.0583333,1.0583333 0 0 0 38.1,96.308333 1.0583333,1.0583333 0 0 0 39.158333,95.249999 1.0583333,1.0583333 0 0 0 38.1,94.191666 Z m 10.583333,0 a 1.0583333,1.0583333 0 0 0 -1.058333,1.058333 1.0583333,1.0583333 0 0 0 1.058333,1.058334 1.0583333,1.0583333 0 0 0 1.058333,-1.058334 1.0583333,1.0583333 0 0 0 -1.058333,-1.058333 z m 10.583333,0 a 1.0583333,1.0583333 0 0 0 -1.058333,1.058333 1.0583333,1.0583333 0 0 0 1.058333,1.058334 1.0583333,1.0583333 0 0 0 1.058334,-1.058334 1.0583333,1.0583333 0 0 0 -1.058334,-1.058333 z m 10.583333,0 a 1.0583333,1.0583333 0 0 0 -1.058333,1.058333 1.0583333,1.0583333 0 0 0 1.058333,1.058334 1.0583333,1.0583333 0 0 0 1.058334,-1.058334 1.0583333,1.0583333 0 0 0 -1.058334,-1.058333 z m 10.583334,0 a 1.0583333,1.0583333 0 0 0 -1.058334,1.058333 1.0583333,1.0583333 0 0 0 1.058334,1.058334 1.0583333,1.0583333 0 0 0 1.058333,-1.058334 1.0583333,1.0583333 0 0 0 -1.058333,-1.058333 z m 10.583333,0 a 1.0583333,1.0583333 0 0 0 -1.058333,1.058333 1.0583333,1.0583333 0 0 0 1.058333,1.058334 1.0583333,1.0583333 0 0 0 1.058333,-1.058334 1.0583333,1.0583333 0 0 0 -1.058333,-1.058333 z m 10.583334,0 a 1.0583333,1.0583333 0 0 0 -1.05833,1.058333 1.0583333,1.0583333 0 0 0 1.05833,1.058334 1.0583333,1.0583333 0 0 0 1.05833,-1.058334 A 1.0583333,1.0583333 0 0 0 101.6,94.191666 Z m 10.58333,0 a 1.0583333,1.0583333 0 0 0 -1.05833,1.058333 1.0583333,1.0583333 0 0 0 1.05833,1.058334 1.0583333,1.0583333 0 0 0 1.05834,-1.058334 1.0583333,1.0583333 0 0 0 -1.05834,-1.058333 z M 1.0583333,99.483333 A 1.0583333,1.0583333 0 0 0 0,100.54167 1.0583333,1.0583333 0 0 0 1.0583333,101.6 1.0583333,1.0583333 0 0 0 2.1166667,100.54167 1.0583333,1.0583333 0 0 0 1.0583333,99.483333 Z m 10.5833337,0 A 1.0583333,1.0583333 0 0 0 10.583333,100.54167 1.0583333,1.0583333 0 0 0 11.641667,101.6 1.0583333,1.0583333 0 0 0 12.7,100.54167 1.0583333,1.0583333 0 0 0 11.641667,99.483333 Z m 10.583333,0 A 1.0583333,1.0583333 0 0 0 21.166667,100.54167 1.0583333,1.0583333 0 0 0 22.225,101.6 1.0583333,1.0583333 0 0 0 23.283333,100.54167 1.0583333,1.0583333 0 0 0 22.225,99.483333 Z m 10.583333,0 A 1.0583333,1.0583333 0 0 0 31.75,100.54167 1.0583333,1.0583333 0 0 0 32.808333,101.6 a 1.0583333,1.0583333 0 0 0 1.058333,-1.05833 1.0583333,1.0583333 0 0 0 -1.058333,-1.058337 z m 10.583333,0 A 1.0583333,1.0583333 0 0 0 42.333333,100.54167 1.0583333,1.0583333 0 0 0 43.391666,101.6 1.0583333,1.0583333 0 0 0 44.45,100.54167 1.0583333,1.0583333 0 0 0 43.391666,99.483333 Z m 10.583334,0 A 1.0583333,1.0583333 0 0 0 52.916666,100.54167 1.0583333,1.0583333 0 0 0 53.975,101.6 1.0583333,1.0583333 0 0 0 55.033333,100.54167 1.0583333,1.0583333 0 0 0 53.975,99.483333 Z m 10.583333,0 A 1.0583333,1.0583333 0 0 0 63.5,100.54167 1.0583333,1.0583333 0 0 0 64.558333,101.6 a 1.0583333,1.0583333 0 0 0 1.058333,-1.05833 1.0583333,1.0583333 0 0 0 -1.058333,-1.058337 z m 10.583333,0 a 1.0583333,1.0583333 0 0 0 -1.058333,1.058337 1.0583333,1.0583333 0 0 0 1.058333,1.05833 1.0583333,1.0583333 0 0 0 1.058333,-1.05833 1.0583333,1.0583333 0 0 0 -1.058333,-1.058337 z m 10.583333,0 a 1.0583333,1.0583333 0 0 0 -1.058333,1.058337 1.0583333,1.0583333 0 0 0 1.058333,1.05833 1.0583333,1.0583333 0 0 0 1.058334,-1.05833 1.0583333,1.0583333 0 0 0 -1.058334,-1.058337 z m 10.583334,0 a 1.0583333,1.0583333 0 0 0 -1.058334,1.058337 1.0583333,1.0583333 0 0 0 1.058334,1.05833 1.0583333,1.0583333 0 0 0 1.058333,-1.05833 1.0583333,1.0583333 0 0 0 -1.058333,-1.058337 z m 10.583337,0 a 1.0583333,1.0583333 0 0 0 -1.05834,1.058337 1.0583333,1.0583333 0 0 0 1.05834,1.05833 1.0583333,1.0583333 0 0 0 1.05833,-1.05833 1.0583333,1.0583333 0 0 0 -1.05833,-1.058337 z m 10.58333,0 a 1.0583333,1.0583333 0 0 0 -1.05833,1.058337 1.0583333,1.0583333 0 0 0 1.05833,1.05833 1.0583333,1.0583333 0 0 0 1.05833,-1.05833 1.0583333,1.0583333 0 0 0 -1.05833,-1.058337 z M 6.35,104.775 A 1.0583333,1.0583333 0 0 0 5.2916666,105.83333 1.0583333,1.0583333 0 0 0 6.35,106.89167 1.0583333,1.0583333 0 0 0 7.4083333,105.83333 1.0583333,1.0583333 0 0 0 6.35,104.775 Z m 10.583333,0 a 1.0583333,1.0583333 0 0 0 -1.058333,1.05833 1.0583333,1.0583333 0 0 0 1.058333,1.05834 1.0583333,1.0583333 0 0 0 1.058334,-1.05834 1.0583333,1.0583333 0 0 0 -1.058334,-1.05833 z m 10.583333,0 a 1.0583333,1.0583333 0 0 0 -1.058333,1.05833 1.0583333,1.0583333 0 0 0 1.058333,1.05834 1.0583333,1.0583333 0 0 0 1.058334,-1.05834 1.0583333,1.0583333 0 0 0 -1.058334,-1.05833 z m 10.583334,0 A 1.0583333,1.0583333 0 0 0 37.041666,105.83333 1.0583333,1.0583333 0 0 0 38.1,106.89167 1.0583333,1.0583333 0 0 0 39.158333,105.83333 1.0583333,1.0583333 0 0 0 38.1,104.775 Z m 10.583333,0 a 1.0583333,1.0583333 0 0 0 -1.058333,1.05833 1.0583333,1.0583333 0 0 0 1.058333,1.05834 1.0583333,1.0583333 0 0 0 1.058333,-1.05834 1.0583333,1.0583333 0 0 0 -1.058333,-1.05833 z m 10.583333,0 a 1.0583333,1.0583333 0 0 0 -1.058333,1.05833 1.0583333,1.0583333 0 0 0 1.058333,1.05834 1.0583333,1.0583333 0 0 0 1.058334,-1.05834 1.0583333,1.0583333 0 0 0 -1.058334,-1.05833 z m 10.583333,0 a 1.0583333,1.0583333 0 0 0 -1.058333,1.05833 1.0583333,1.0583333 0 0 0 1.058333,1.05834 1.0583333,1.0583333 0 0 0 1.058334,-1.05834 1.0583333,1.0583333 0 0 0 -1.058334,-1.05833 z m 10.583334,0 a 1.0583333,1.0583333 0 0 0 -1.058334,1.05833 1.0583333,1.0583333 0 0 0 1.058334,1.05834 1.0583333,1.0583333 0 0 0 1.058333,-1.05834 1.0583333,1.0583333 0 0 0 -1.058333,-1.05833 z m 10.583333,0 a 1.0583333,1.0583333 0 0 0 -1.058333,1.05833 1.0583333,1.0583333 0 0 0 1.058333,1.05834 1.0583333,1.0583333 0 0 0 1.058333,-1.05834 1.0583333,1.0583333 0 0 0 -1.058333,-1.05833 z m 10.583334,0 a 1.0583333,1.0583333 0 0 0 -1.05833,1.05833 1.0583333,1.0583333 0 0 0 1.05833,1.05834 1.0583333,1.0583333 0 0 0 1.05833,-1.05834 A 1.0583333,1.0583333 0 0 0 101.6,104.775 Z m 10.58333,0 a 1.0583333,1.0583333 0 0 0 -1.05833,1.05833 1.0583333,1.0583333 0 0 0 1.05833,1.05834 1.0583333,1.0583333 0 0 0 1.05834,-1.05834 1.0583333,1.0583333 0 0 0 -1.05834,-1.05833 z M 1.0583333,110.06667 A 1.0583333,1.0583333 0 0 0 0,111.125 1.0583333,1.0583333 0 0 0 1.0583333,112.18333 1.0583333,1.0583333 0 0 0 2.1166667,111.125 1.0583333,1.0583333 0 0 0 1.0583333,110.06667 Z m 10.5833337,0 a 1.0583333,1.0583333 0 0 0 -1.058334,1.05833 1.0583333,1.0583333 0 0 0 1.058334,1.05833 A 1.0583333,1.0583333 0 0 0 12.7,111.125 1.0583333,1.0583333 0 0 0 11.641667,110.06667 Z m 10.583333,0 A 1.0583333,1.0583333 0 0 0 21.166667,111.125 1.0583333,1.0583333 0 0 0 22.225,112.18333 1.0583333,1.0583333 0 0 0 23.283333,111.125 1.0583333,1.0583333 0 0 0 22.225,110.06667 Z m 10.583333,0 A 1.0583333,1.0583333 0 0 0 31.75,111.125 a 1.0583333,1.0583333 0 0 0 1.058333,1.05833 1.0583333,1.0583333 0 0 0 1.058333,-1.05833 1.0583333,1.0583333 0 0 0 -1.058333,-1.05833 z m 10.583333,0 a 1.0583333,1.0583333 0 0 0 -1.058333,1.05833 1.0583333,1.0583333 0 0 0 1.058333,1.05833 A 1.0583333,1.0583333 0 0 0 44.45,111.125 1.0583333,1.0583333 0 0 0 43.391666,110.06667 Z m 10.583334,0 A 1.0583333,1.0583333 0 0 0 52.916666,111.125 1.0583333,1.0583333 0 0 0 53.975,112.18333 1.0583333,1.0583333 0 0 0 55.033333,111.125 1.0583333,1.0583333 0 0 0 53.975,110.06667 Z m 10.583333,0 A 1.0583333,1.0583333 0 0 0 63.5,111.125 a 1.0583333,1.0583333 0 0 0 1.058333,1.05833 1.0583333,1.0583333 0 0 0 1.058333,-1.05833 1.0583333,1.0583333 0 0 0 -1.058333,-1.05833 z m 10.583333,0 a 1.0583333,1.0583333 0 0 0 -1.058333,1.05833 1.0583333,1.0583333 0 0 0 1.058333,1.05833 1.0583333,1.0583333 0 0 0 1.058333,-1.05833 1.0583333,1.0583333 0 0 0 -1.058333,-1.05833 z m 10.583333,0 a 1.0583333,1.0583333 0 0 0 -1.058333,1.05833 1.0583333,1.0583333 0 0 0 1.058333,1.05833 1.0583333,1.0583333 0 0 0 1.058334,-1.05833 1.0583333,1.0583333 0 0 0 -1.058334,-1.05833 z m 10.583334,0 a 1.0583333,1.0583333 0 0 0 -1.058334,1.05833 1.0583333,1.0583333 0 0 0 1.058334,1.05833 1.0583333,1.0583333 0 0 0 1.058333,-1.05833 1.0583333,1.0583333 0 0 0 -1.058333,-1.05833 z m 10.583337,0 a 1.0583333,1.0583333 0 0 0 -1.05834,1.05833 1.0583333,1.0583333 0 0 0 1.05834,1.05833 1.0583333,1.0583333 0 0 0 1.05833,-1.05833 1.0583333,1.0583333 0 0 0 -1.05833,-1.05833 z m 10.58333,0 a 1.0583333,1.0583333 0 0 0 -1.05833,1.05833 1.0583333,1.0583333 0 0 0 1.05833,1.05833 1.0583333,1.0583333 0 0 0 1.05833,-1.05833 1.0583333,1.0583333 0 0 0 -1.05833,-1.05833 z M 6.35,115.35833 A 1.0583333,1.0583333 0 0 0 5.2916666,116.41667 1.0583333,1.0583333 0 0 0 6.35,117.475 1.0583333,1.0583333 0 0 0 7.4083333,116.41667 1.0583333,1.0583333 0 0 0 6.35,115.35833 Z m 10.583333,0 a 1.0583333,1.0583333 0 0 0 -1.058333,1.05834 1.0583333,1.0583333 0 0 0 1.058333,1.05833 1.0583333,1.0583333 0 0 0 1.058334,-1.05833 1.0583333,1.0583333 0 0 0 -1.058334,-1.05834 z m 10.583333,0 a 1.0583333,1.0583333 0 0 0 -1.058333,1.05834 1.0583333,1.0583333 0 0 0 1.058333,1.05833 1.0583333,1.0583333 0 0 0 1.058334,-1.05833 1.0583333,1.0583333 0 0 0 -1.058334,-1.05834 z m 10.583334,0 A 1.0583333,1.0583333 0 0 0 37.041666,116.41667 1.0583333,1.0583333 0 0 0 38.1,117.475 1.0583333,1.0583333 0 0 0 39.158333,116.41667 1.0583333,1.0583333 0 0 0 38.1,115.35833 Z m 10.583333,0 a 1.0583333,1.0583333 0 0 0 -1.058333,1.05834 1.0583333,1.0583333 0 0 0 1.058333,1.05833 1.0583333,1.0583333 0 0 0 1.058333,-1.05833 1.0583333,1.0583333 0 0 0 -1.058333,-1.05834 z m 10.583333,0 a 1.0583333,1.0583333 0 0 0 -1.058333,1.05834 1.0583333,1.0583333 0 0 0 1.058333,1.05833 1.0583333,1.0583333 0 0 0 1.058334,-1.05833 1.0583333,1.0583333 0 0 0 -1.058334,-1.05834 z m 10.583333,0 a 1.0583333,1.0583333 0 0 0 -1.058333,1.05834 1.0583333,1.0583333 0 0 0 1.058333,1.05833 1.0583333,1.0583333 0 0 0 1.058334,-1.05833 1.0583333,1.0583333 0 0 0 -1.058334,-1.05834 z m 10.583334,0 a 1.0583333,1.0583333 0 0 0 -1.058334,1.05834 1.0583333,1.0583333 0 0 0 1.058334,1.05833 1.0583333,1.0583333 0 0 0 1.058333,-1.05833 1.0583333,1.0583333 0 0 0 -1.058333,-1.05834 z m 10.583333,0 a 1.0583333,1.0583333 0 0 0 -1.058333,1.05834 1.0583333,1.0583333 0 0 0 1.058333,1.05833 1.0583333,1.0583333 0 0 0 1.058333,-1.05833 1.0583333,1.0583333 0 0 0 -1.058333,-1.05834 z m 10.583334,0 a 1.0583333,1.0583333 0 0 0 -1.05833,1.05834 1.0583333,1.0583333 0 0 0 1.05833,1.05833 1.0583333,1.0583333 0 0 0 1.05833,-1.05833 1.0583333,1.0583333 0 0 0 -1.05833,-1.05834 z m 10.58333,0 a 1.0583333,1.0583333 0 0 0 -1.05833,1.05834 1.0583333,1.0583333 0 0 0 1.05833,1.05833 1.0583333,1.0583333 0 0 0 1.05834,-1.05833 1.0583333,1.0583333 0 0 0 -1.05834,-1.05834 z M 1.0583333,120.65 A 1.0583333,1.0583333 0 0 0 0,121.70833 1.0583333,1.0583333 0 0 0 1.0583333,122.76667 1.0583333,1.0583333 0 0 0 2.1166667,121.70833 1.0583333,1.0583333 0 0 0 1.0583333,120.65 Z m 10.5833337,0 a 1.0583333,1.0583333 0 0 0 -1.058334,1.05833 1.0583333,1.0583333 0 0 0 1.058334,1.05834 A 1.0583333,1.0583333 0 0 0 12.7,121.70833 1.0583333,1.0583333 0 0 0 11.641667,120.65 Z m 10.583333,0 a 1.0583333,1.0583333 0 0 0 -1.058333,1.05833 1.0583333,1.0583333 0 0 0 1.058333,1.05834 1.0583333,1.0583333 0 0 0 1.058333,-1.05834 A 1.0583333,1.0583333 0 0 0 22.225,120.65 Z m 10.583333,0 a 1.0583333,1.0583333 0 0 0 -1.058333,1.05833 1.0583333,1.0583333 0 0 0 1.058333,1.05834 1.0583333,1.0583333 0 0 0 1.058333,-1.05834 1.0583333,1.0583333 0 0 0 -1.058333,-1.05833 z m 10.583333,0 a 1.0583333,1.0583333 0 0 0 -1.058333,1.05833 1.0583333,1.0583333 0 0 0 1.058333,1.05834 A 1.0583333,1.0583333 0 0 0 44.45,121.70833 1.0583333,1.0583333 0 0 0 43.391666,120.65 Z m 10.583334,0 a 1.0583333,1.0583333 0 0 0 -1.058334,1.05833 1.0583333,1.0583333 0 0 0 1.058334,1.05834 1.0583333,1.0583333 0 0 0 1.058333,-1.05834 A 1.0583333,1.0583333 0 0 0 53.975,120.65 Z m 10.583333,0 A 1.0583333,1.0583333 0 0 0 63.5,121.70833 a 1.0583333,1.0583333 0 0 0 1.058333,1.05834 1.0583333,1.0583333 0 0 0 1.058333,-1.05834 1.0583333,1.0583333 0 0 0 -1.058333,-1.05833 z m 10.583333,0 a 1.0583333,1.0583333 0 0 0 -1.058333,1.05833 1.0583333,1.0583333 0 0 0 1.058333,1.05834 1.0583333,1.0583333 0 0 0 1.058333,-1.05834 1.0583333,1.0583333 0 0 0 -1.058333,-1.05833 z m 10.583333,0 a 1.0583333,1.0583333 0 0 0 -1.058333,1.05833 1.0583333,1.0583333 0 0 0 1.058333,1.05834 1.0583333,1.0583333 0 0 0 1.058334,-1.05834 1.0583333,1.0583333 0 0 0 -1.058334,-1.05833 z m 10.583334,0 a 1.0583333,1.0583333 0 0 0 -1.058334,1.05833 1.0583333,1.0583333 0 0 0 1.058334,1.05834 1.0583333,1.0583333 0 0 0 1.058333,-1.05834 1.0583333,1.0583333 0 0 0 -1.058333,-1.05833 z m 10.583337,0 a 1.0583333,1.0583333 0 0 0 -1.05834,1.05833 1.0583333,1.0583333 0 0 0 1.05834,1.05834 1.0583333,1.0583333 0 0 0 1.05833,-1.05834 1.0583333,1.0583333 0 0 0 -1.05833,-1.05833 z m 10.58333,0 a 1.0583333,1.0583333 0 0 0 -1.05833,1.05833 1.0583333,1.0583333 0 0 0 1.05833,1.05834 1.0583333,1.0583333 0 0 0 1.05833,-1.05834 A 1.0583333,1.0583333 0 0 0 117.475,120.65 Z M 6.35,125.94167 A 1.0583333,1.0583333 0 0 0 5.2916666,127 1.0583333,1.0583333 0 0 0 6.35,128.05833 1.0583333,1.0583333 0 0 0 7.4083333,127 1.0583333,1.0583333 0 0 0 6.35,125.94167 Z m 10.583333,0 A 1.0583333,1.0583333 0 0 0 15.875,127 1.0583333,1.0583333 0 0 0 16.933333,128.05833 1.0583333,1.0583333 0 0 0 17.991667,127 1.0583333,1.0583333 0 0 0 16.933333,125.94167 Z m 10.583333,0 A 1.0583333,1.0583333 0 0 0 26.458333,127 1.0583333,1.0583333 0 0 0 27.516666,128.05833 1.0583333,1.0583333 0 0 0 28.575,127 1.0583333,1.0583333 0 0 0 27.516666,125.94167 Z m 10.583334,0 A 1.0583333,1.0583333 0 0 0 37.041666,127 1.0583333,1.0583333 0 0 0 38.1,128.05833 1.0583333,1.0583333 0 0 0 39.158333,127 1.0583333,1.0583333 0 0 0 38.1,125.94167 Z m 10.583333,0 A 1.0583333,1.0583333 0 0 0 47.625,127 1.0583333,1.0583333 0 0 0 48.683333,128.05833 1.0583333,1.0583333 0 0 0 49.741666,127 1.0583333,1.0583333 0 0 0 48.683333,125.94167 Z m 10.583333,0 A 1.0583333,1.0583333 0 0 0 58.208333,127 1.0583333,1.0583333 0 0 0 59.266666,128.05833 1.0583333,1.0583333 0 0 0 60.325,127 1.0583333,1.0583333 0 0 0 59.266666,125.94167 Z m 10.583333,0 A 1.0583333,1.0583333 0 0 0 68.791666,127 1.0583333,1.0583333 0 0 0 69.849999,128.05833 1.0583333,1.0583333 0 0 0 70.908333,127 1.0583333,1.0583333 0 0 0 69.849999,125.94167 Z m 10.583334,0 A 1.0583333,1.0583333 0 0 0 79.374999,127 1.0583333,1.0583333 0 0 0 80.433333,128.05833 1.0583333,1.0583333 0 0 0 81.491666,127 1.0583333,1.0583333 0 0 0 80.433333,125.94167 Z m 10.583333,0 A 1.0583333,1.0583333 0 0 0 89.958333,127 1.0583333,1.0583333 0 0 0 91.016666,128.05833 1.0583333,1.0583333 0 0 0 92.074999,127 1.0583333,1.0583333 0 0 0 91.016666,125.94167 Z m 10.583334,0 A 1.0583333,1.0583333 0 0 0 100.54167,127 1.0583333,1.0583333 0 0 0 101.6,128.05833 1.0583333,1.0583333 0 0 0 102.65833,127 1.0583333,1.0583333 0 0 0 101.6,125.94167 Z m 10.58333,0 A 1.0583333,1.0583333 0 0 0 111.125,127 a 1.0583333,1.0583333 0 0 0 1.05833,1.05833 1.0583333,1.0583333 0 0 0 1.05834,-1.05833 1.0583333,1.0583333 0 0 0 -1.05834,-1.05833 z M 1.0583333,131.23333 A 1.0583333,1.0583333 0 0 0 0,132.29167 1.0583333,1.0583333 0 0 0 1.0583333,133.35 1.0583333,1.0583333 0 0 0 2.1166667,132.29167 1.0583333,1.0583333 0 0 0 1.0583333,131.23333 Z m 10.5833337,0 a 1.0583333,1.0583333 0 0 0 -1.058334,1.05834 1.0583333,1.0583333 0 0 0 1.058334,1.05833 1.0583333,1.0583333 0 0 0 1.058333,-1.05833 1.0583333,1.0583333 0 0 0 -1.058333,-1.05834 z m 10.583333,0 A 1.0583333,1.0583333 0 0 0 21.166667,132.29167 1.0583333,1.0583333 0 0 0 22.225,133.35 1.0583333,1.0583333 0 0 0 23.283333,132.29167 1.0583333,1.0583333 0 0 0 22.225,131.23333 Z m 10.583333,0 a 1.0583333,1.0583333 0 0 0 -1.058333,1.05834 1.0583333,1.0583333 0 0 0 1.058333,1.05833 1.0583333,1.0583333 0 0 0 1.058333,-1.05833 1.0583333,1.0583333 0 0 0 -1.058333,-1.05834 z m 10.583333,0 a 1.0583333,1.0583333 0 0 0 -1.058333,1.05834 1.0583333,1.0583333 0 0 0 1.058333,1.05833 1.0583333,1.0583333 0 0 0 1.058334,-1.05833 1.0583333,1.0583333 0 0 0 -1.058334,-1.05834 z m 10.583334,0 A 1.0583333,1.0583333 0 0 0 52.916666,132.29167 1.0583333,1.0583333 0 0 0 53.975,133.35 1.0583333,1.0583333 0 0 0 55.033333,132.29167 1.0583333,1.0583333 0 0 0 53.975,131.23333 Z m 10.583333,0 A 1.0583333,1.0583333 0 0 0 63.5,132.29167 a 1.0583333,1.0583333 0 0 0 1.058333,1.05833 1.0583333,1.0583333 0 0 0 1.058333,-1.05833 1.0583333,1.0583333 0 0 0 -1.058333,-1.05834 z m 10.583333,0 a 1.0583333,1.0583333 0 0 0 -1.058333,1.05834 1.0583333,1.0583333 0 0 0 1.058333,1.05833 1.0583333,1.0583333 0 0 0 1.058333,-1.05833 1.0583333,1.0583333 0 0 0 -1.058333,-1.05834 z m 10.583333,0 a 1.0583333,1.0583333 0 0 0 -1.058333,1.05834 1.0583333,1.0583333 0 0 0 1.058333,1.05833 1.0583333,1.0583333 0 0 0 1.058334,-1.05833 1.0583333,1.0583333 0 0 0 -1.058334,-1.05834 z m 10.583334,0 a 1.0583333,1.0583333 0 0 0 -1.058334,1.05834 1.0583333,1.0583333 0 0 0 1.058334,1.05833 1.0583333,1.0583333 0 0 0 1.058333,-1.05833 1.0583333,1.0583333 0 0 0 -1.058333,-1.05834 z m 10.583337,0 a 1.0583333,1.0583333 0 0 0 -1.05834,1.05834 1.0583333,1.0583333 0 0 0 1.05834,1.05833 1.0583333,1.0583333 0 0 0 1.05833,-1.05833 1.0583333,1.0583333 0 0 0 -1.05833,-1.05834 z m 10.58333,0 a 1.0583333,1.0583333 0 0 0 -1.05833,1.05834 1.0583333,1.0583333 0 0 0 1.05833,1.05833 1.0583333,1.0583333 0 0 0 1.05833,-1.05833 1.0583333,1.0583333 0 0 0 -1.05833,-1.05834 z M 6.35,136.525 A 1.0583333,1.0583333 0 0 0 5.2916666,137.58333 1.0583333,1.0583333 0 0 0 6.35,138.64167 1.0583333,1.0583333 0 0 0 7.4083333,137.58333 1.0583333,1.0583333 0 0 0 6.35,136.525 Z m 10.583333,0 a 1.0583333,1.0583333 0 0 0 -1.058333,1.05833 1.0583333,1.0583333 0 0 0 1.058333,1.05834 1.0583333,1.0583333 0 0 0 1.058334,-1.05834 1.0583333,1.0583333 0 0 0 -1.058334,-1.05833 z m 10.583333,0 a 1.0583333,1.0583333 0 0 0 -1.058333,1.05833 1.0583333,1.0583333 0 0 0 1.058333,1.05834 1.0583333,1.0583333 0 0 0 1.058334,-1.05834 1.0583333,1.0583333 0 0 0 -1.058334,-1.05833 z m 10.583334,0 A 1.0583333,1.0583333 0 0 0 37.041666,137.58333 1.0583333,1.0583333 0 0 0 38.1,138.64167 1.0583333,1.0583333 0 0 0 39.158333,137.58333 1.0583333,1.0583333 0 0 0 38.1,136.525 Z m 10.583333,0 a 1.0583333,1.0583333 0 0 0 -1.058333,1.05833 1.0583333,1.0583333 0 0 0 1.058333,1.05834 1.0583333,1.0583333 0 0 0 1.058333,-1.05834 1.0583333,1.0583333 0 0 0 -1.058333,-1.05833 z m 10.583333,0 a 1.0583333,1.0583333 0 0 0 -1.058333,1.05833 1.0583333,1.0583333 0 0 0 1.058333,1.05834 1.0583333,1.0583333 0 0 0 1.058334,-1.05834 1.0583333,1.0583333 0 0 0 -1.058334,-1.05833 z m 10.583333,0 a 1.0583333,1.0583333 0 0 0 -1.058333,1.05833 1.0583333,1.0583333 0 0 0 1.058333,1.05834 1.0583333,1.0583333 0 0 0 1.058334,-1.05834 1.0583333,1.0583333 0 0 0 -1.058334,-1.05833 z m 10.583334,0 a 1.0583333,1.0583333 0 0 0 -1.058334,1.05833 1.0583333,1.0583333 0 0 0 1.058334,1.05834 1.0583333,1.0583333 0 0 0 1.058333,-1.05834 1.0583333,1.0583333 0 0 0 -1.058333,-1.05833 z m 10.583333,0 a 1.0583333,1.0583333 0 0 0 -1.058333,1.05833 1.0583333,1.0583333 0 0 0 1.058333,1.05834 1.0583333,1.0583333 0 0 0 1.058333,-1.05834 1.0583333,1.0583333 0 0 0 -1.058333,-1.05833 z m 10.583334,0 a 1.0583333,1.0583333 0 0 0 -1.05833,1.05833 1.0583333,1.0583333 0 0 0 1.05833,1.05834 1.0583333,1.0583333 0 0 0 1.05833,-1.05834 A 1.0583333,1.0583333 0 0 0 101.6,136.525 Z m 10.58333,0 a 1.0583333,1.0583333 0 0 0 -1.05833,1.05833 1.0583333,1.0583333 0 0 0 1.05833,1.05834 1.0583333,1.0583333 0 0 0 1.05834,-1.05834 1.0583333,1.0583333 0 0 0 -1.05834,-1.05833 z M 1.0583333,141.81667 A 1.0583333,1.0583333 0 0 0 0,142.875 1.0583333,1.0583333 0 0 0 1.0583333,143.93333 1.0583333,1.0583333 0 0 0 2.1166667,142.875 1.0583333,1.0583333 0 0 0 1.0583333,141.81667 Z m 10.5833337,0 a 1.0583333,1.0583333 0 0 0 -1.058334,1.05833 1.0583333,1.0583333 0 0 0 1.058334,1.05833 A 1.0583333,1.0583333 0 0 0 12.7,142.875 1.0583333,1.0583333 0 0 0 11.641667,141.81667 Z m 10.583333,0 A 1.0583333,1.0583333 0 0 0 21.166667,142.875 1.0583333,1.0583333 0 0 0 22.225,143.93333 1.0583333,1.0583333 0 0 0 23.283333,142.875 1.0583333,1.0583333 0 0 0 22.225,141.81667 Z m 10.583333,0 A 1.0583333,1.0583333 0 0 0 31.75,142.875 a 1.0583333,1.0583333 0 0 0 1.058333,1.05833 1.0583333,1.0583333 0 0 0 1.058333,-1.05833 1.0583333,1.0583333 0 0 0 -1.058333,-1.05833 z m 10.583333,0 a 1.0583333,1.0583333 0 0 0 -1.058333,1.05833 1.0583333,1.0583333 0 0 0 1.058333,1.05833 A 1.0583333,1.0583333 0 0 0 44.45,142.875 1.0583333,1.0583333 0 0 0 43.391666,141.81667 Z m 10.583334,0 A 1.0583333,1.0583333 0 0 0 52.916666,142.875 1.0583333,1.0583333 0 0 0 53.975,143.93333 1.0583333,1.0583333 0 0 0 55.033333,142.875 1.0583333,1.0583333 0 0 0 53.975,141.81667 Z m 10.583333,0 A 1.0583333,1.0583333 0 0 0 63.5,142.875 a 1.0583333,1.0583333 0 0 0 1.058333,1.05833 1.0583333,1.0583333 0 0 0 1.058333,-1.05833 1.0583333,1.0583333 0 0 0 -1.058333,-1.05833 z m 10.583333,0 a 1.0583333,1.0583333 0 0 0 -1.058333,1.05833 1.0583333,1.0583333 0 0 0 1.058333,1.05833 1.0583333,1.0583333 0 0 0 1.058333,-1.05833 1.0583333,1.0583333 0 0 0 -1.058333,-1.05833 z m 10.583333,0 a 1.0583333,1.0583333 0 0 0 -1.058333,1.05833 1.0583333,1.0583333 0 0 0 1.058333,1.05833 1.0583333,1.0583333 0 0 0 1.058334,-1.05833 1.0583333,1.0583333 0 0 0 -1.058334,-1.05833 z m 10.583334,0 a 1.0583333,1.0583333 0 0 0 -1.058334,1.05833 1.0583333,1.0583333 0 0 0 1.058334,1.05833 1.0583333,1.0583333 0 0 0 1.058333,-1.05833 1.0583333,1.0583333 0 0 0 -1.058333,-1.05833 z m 10.583337,0 a 1.0583333,1.0583333 0 0 0 -1.05834,1.05833 1.0583333,1.0583333 0 0 0 1.05834,1.05833 1.0583333,1.0583333 0 0 0 1.05833,-1.05833 1.0583333,1.0583333 0 0 0 -1.05833,-1.05833 z m 10.58333,0 a 1.0583333,1.0583333 0 0 0 -1.05833,1.05833 1.0583333,1.0583333 0 0 0 1.05833,1.05833 1.0583333,1.0583333 0 0 0 1.05833,-1.05833 1.0583333,1.0583333 0 0 0 -1.05833,-1.05833 z" /></g></g></svg>
